
real	0m4.129s
user	0m3.876s
sys	0m0.144s

 Performance counter stats for './__run 1':

       4022.995050      task-clock (msec)         #    0.974 CPUs utilized          
               328      context-switches          #    0.082 K/sec                  
                 3      cpu-migrations            #    0.001 K/sec                  
             1,060      page-faults               #    0.263 K/sec                  
    12,871,656,281      cycles                    #    3.200 GHz                    
     3,498,338,408      stalled-cycles-frontend   #   27.18% frontend cycles idle   
    32,420,238,600      instructions              #    2.52  insn per cycle         
                                                  #    0.11  stalled cycles per insn
     1,562,961,621      branches                  #  388.507 M/sec                  
        43,727,096      branch-misses             #    2.80% of all branches        

       4.132337868 seconds time elapsed


real	0m4.197s
user	0m3.894s
sys	0m0.120s

 Performance counter stats for './__run 1':

       4015.965137      task-clock (msec)         #    0.956 CPUs utilized          
                13      context-switches          #    0.003 K/sec                  
                 2      cpu-migrations            #    0.000 K/sec                  
             1,058      page-faults               #    0.263 K/sec                  
    12,876,657,455      cycles                    #    3.206 GHz                    
     3,507,701,342      stalled-cycles-frontend   #   27.24% frontend cycles idle   
    32,405,877,719      instructions              #    2.52  insn per cycle         
                                                  #    0.11  stalled cycles per insn
     1,560,344,719      branches                  #  388.535 M/sec                  
        43,620,318      branch-misses             #    2.80% of all branches        

       4.199471991 seconds time elapsed


real	0m4.225s
user	0m3.882s
sys	0m0.156s

 Performance counter stats for './__run 1':

       4040.748973      task-clock (msec)         #    0.956 CPUs utilized          
               200      context-switches          #    0.049 K/sec                  
                 3      cpu-migrations            #    0.001 K/sec                  
             1,060      page-faults               #    0.262 K/sec                  
    12,965,057,292      cycles                    #    3.209 GHz                    
     3,596,775,227      stalled-cycles-frontend   #   27.74% frontend cycles idle   
    32,412,109,506      instructions              #    2.50  insn per cycle         
                                                  #    0.11  stalled cycles per insn
     1,561,494,233      branches                  #  386.437 M/sec                  
        43,658,522      branch-misses             #    2.80% of all branches        

       4.226746320 seconds time elapsed

