
real	0m4.031s
user	0m3.798s
sys	0m0.164s

 Performance counter stats for './__run 1':

       3966.096683      task-clock (msec)         #    0.983 CPUs utilized          
               481      context-switches          #    0.121 K/sec                  
                 3      cpu-migrations            #    0.001 K/sec                  
             1,061      page-faults               #    0.268 K/sec                  
    12,697,806,358      cycles                    #    3.202 GHz                    
     3,220,100,778      stalled-cycles-frontend   #   25.36% frontend cycles idle   
    32,463,291,998      instructions              #    2.56  insn per cycle         
                                                  #    0.10  stalled cycles per insn
     1,702,842,792      branches                  #  429.350 M/sec                  
        42,056,885      branch-misses             #    2.47% of all branches        

       4.034655843 seconds time elapsed


real	0m4.080s
user	0m3.767s
sys	0m0.164s

 Performance counter stats for './__run 1':

       3934.686590      task-clock (msec)         #    0.964 CPUs utilized          
               290      context-switches          #    0.074 K/sec                  
                 2      cpu-migrations            #    0.001 K/sec                  
             1,059      page-faults               #    0.269 K/sec                  
    12,663,999,191      cycles                    #    3.219 GHz                    
     3,184,479,541      stalled-cycles-frontend   #   25.15% frontend cycles idle   
    32,457,726,097      instructions              #    2.56  insn per cycle         
                                                  #    0.10  stalled cycles per insn
     1,701,779,797      branches                  #  432.507 M/sec                  
        42,023,095      branch-misses             #    2.47% of all branches        

       4.083316307 seconds time elapsed


real	0m4.143s
user	0m3.785s
sys	0m0.165s

 Performance counter stats for './__run 1':

       3952.732098      task-clock (msec)         #    0.954 CPUs utilized          
               412      context-switches          #    0.104 K/sec                  
                 3      cpu-migrations            #    0.001 K/sec                  
             1,056      page-faults               #    0.267 K/sec                  
    12,687,388,929      cycles                    #    3.210 GHz                    
     3,204,179,272      stalled-cycles-frontend   #   25.25% frontend cycles idle   
    32,458,860,952      instructions              #    2.56  insn per cycle         
                                                  #    0.10  stalled cycles per insn
     1,702,013,669      branches                  #  430.592 M/sec                  
        42,037,489      branch-misses             #    2.47% of all branches        

       4.145339989 seconds time elapsed


real	0m3.443s
user	0m3.065s
sys	0m0.100s

 Performance counter stats for './__run 2':

       3167.228246      task-clock (msec)         #    0.919 CPUs utilized          
               133      context-switches          #    0.042 K/sec                  
                 3      cpu-migrations            #    0.001 K/sec                  
             1,059      page-faults               #    0.334 K/sec                  
    10,162,287,248      cycles                    #    3.209 GHz                    
     2,458,765,096      stalled-cycles-frontend   #   24.19% frontend cycles idle   
    26,375,259,617      instructions              #    2.60  insn per cycle         
                                                  #    0.09  stalled cycles per insn
     1,381,877,851      branches                  #  436.305 M/sec                  
        34,058,125      branch-misses             #    2.46% of all branches        

       3.445326876 seconds time elapsed


real	0m3.171s
user	0m3.063s
sys	0m0.108s

 Performance counter stats for './__run 2':

       3173.345584      task-clock (msec)         #    1.000 CPUs utilized          
                 6      context-switches          #    0.002 K/sec                  
                 0      cpu-migrations            #    0.000 K/sec                  
             1,059      page-faults               #    0.334 K/sec                  
    10,197,460,531      cycles                    #    3.213 GHz                    
     2,488,113,603      stalled-cycles-frontend   #   24.40% frontend cycles idle   
    26,371,229,788      instructions              #    2.59  insn per cycle         
                                                  #    0.09  stalled cycles per insn
     1,381,142,867      branches                  #  435.232 M/sec                  
        34,037,286      branch-misses             #    2.46% of all branches        

       3.173958481 seconds time elapsed


real	0m3.512s
user	0m3.141s
sys	0m0.164s

 Performance counter stats for './__run 2':

       3308.891218      task-clock (msec)         #    0.941 CPUs utilized          
               129      context-switches          #    0.039 K/sec                  
                 1      cpu-migrations            #    0.000 K/sec                  
             1,059      page-faults               #    0.320 K/sec                  
    10,568,093,729      cycles                    #    3.194 GHz                    
     2,837,220,496      stalled-cycles-frontend   #   26.85% frontend cycles idle   
    26,386,341,249      instructions              #    2.50  insn per cycle         
                                                  #    0.11  stalled cycles per insn
     1,383,813,989      branches                  #  418.211 M/sec                  
        34,127,164      branch-misses             #    2.47% of all branches        

       3.514621144 seconds time elapsed


real	0m0.878s
user	0m0.829s
sys	0m0.036s

 Performance counter stats for './__run 3':

        866.619148      task-clock (msec)         #    0.985 CPUs utilized          
                43      context-switches          #    0.050 K/sec                  
                 2      cpu-migrations            #    0.002 K/sec                  
             1,057      page-faults               #    0.001 M/sec                  
     2,773,791,298      cycles                    #    3.201 GHz                    
       717,697,849      stalled-cycles-frontend   #   25.87% frontend cycles idle   
     7,034,450,152      instructions              #    2.54  insn per cycle         
                                                  #    0.10  stalled cycles per insn
       369,505,641      branches                  #  426.376 M/sec                  
         9,137,119      branch-misses             #    2.47% of all branches        

       0.880262513 seconds time elapsed


real	0m0.866s
user	0m0.825s
sys	0m0.040s

 Performance counter stats for './__run 3':

        867.414932      task-clock (msec)         #    0.998 CPUs utilized          
                60      context-switches          #    0.069 K/sec                  
                 1      cpu-migrations            #    0.001 K/sec                  
             1,059      page-faults               #    0.001 M/sec                  
     2,780,997,264      cycles                    #    3.206 GHz                    
       725,100,066      stalled-cycles-frontend   #   26.07% frontend cycles idle   
     7,035,776,909      instructions              #    2.53  insn per cycle         
                                                  #    0.10  stalled cycles per insn
       369,753,790      branches                  #  426.271 M/sec                  
         9,155,884      branch-misses             #    2.48% of all branches        

       0.869020600 seconds time elapsed


real	0m0.990s
user	0m0.819s
sys	0m0.033s

 Performance counter stats for './__run 3':

        854.297639      task-clock (msec)         #    0.861 CPUs utilized          
                36      context-switches          #    0.042 K/sec                  
                 2      cpu-migrations            #    0.002 K/sec                  
             1,060      page-faults               #    0.001 M/sec                  
     2,722,923,304      cycles                    #    3.187 GHz                    
       665,541,881      stalled-cycles-frontend   #   24.44% frontend cycles idle   
     7,032,979,996      instructions              #    2.58  insn per cycle         
                                                  #    0.09  stalled cycles per insn
       369,246,635      branches                  #  432.222 M/sec                  
         9,113,141      branch-misses             #    2.47% of all branches        

       0.992308823 seconds time elapsed


real	0m13.321s
user	0m12.433s
sys	0m0.480s

 Performance counter stats for './__run 4':

      12916.244780      task-clock (msec)         #    0.969 CPUs utilized          
             1,001      context-switches          #    0.077 K/sec                  
                 4      cpu-migrations            #    0.000 K/sec                  
             1,059      page-faults               #    0.082 K/sec                  
    41,484,574,168      cycles                    #    3.212 GHz                    
    10,451,669,483      stalled-cycles-frontend   #   25.19% frontend cycles idle   
   106,291,009,521      instructions              #    2.56  insn per cycle         
                                                  #    0.10  stalled cycles per insn
     5,570,241,794      branches                  #  431.259 M/sec                  
       137,356,154      branch-misses             #    2.47% of all branches        

      13.323822200 seconds time elapsed


real	0m13.683s
user	0m12.431s
sys	0m0.623s

 Performance counter stats for './__run 4':

      13056.940556      task-clock (msec)         #    0.954 CPUs utilized          
               908      context-switches          #    0.070 K/sec                  
                 7      cpu-migrations            #    0.001 K/sec                  
             1,062      page-faults               #    0.081 K/sec                  
    41,872,342,491      cycles                    #    3.207 GHz                    
    10,823,521,362      stalled-cycles-frontend   #   25.85% frontend cycles idle   
   106,284,523,722      instructions              #    2.54  insn per cycle         
                                                  #    0.10  stalled cycles per insn
     5,568,976,057      branches                  #  426.515 M/sec                  
       137,320,889      branch-misses             #    2.47% of all branches        

      13.685962073 seconds time elapsed


real	0m13.650s
user	0m12.434s
sys	0m0.560s

 Performance counter stats for './__run 4':

      12997.245756      task-clock (msec)         #    0.952 CPUs utilized          
               652      context-switches          #    0.050 K/sec                  
                 5      cpu-migrations            #    0.000 K/sec                  
             1,063      page-faults               #    0.082 K/sec                  
    41,761,627,705      cycles                    #    3.213 GHz                    
    10,708,909,284      stalled-cycles-frontend   #   25.64% frontend cycles idle   
   106,275,177,929      instructions              #    2.54  insn per cycle         
                                                  #    0.10  stalled cycles per insn
     5,567,143,450      branches                  #  428.333 M/sec                  
       137,212,603      branch-misses             #    2.46% of all branches        

      13.652964377 seconds time elapsed


real	0m1.542s
user	0m1.486s
sys	0m0.056s

 Performance counter stats for './__run 5':

       1544.595843      task-clock (msec)         #    1.000 CPUs utilized          
                 8      context-switches          #    0.005 K/sec                  
                 0      cpu-migrations            #    0.000 K/sec                  
             1,059      page-faults               #    0.686 K/sec                  
     4,946,622,583      cycles                    #    3.203 GHz                    
     1,242,924,393      stalled-cycles-frontend   #   25.13% frontend cycles idle   
    12,670,012,448      instructions              #    2.56  insn per cycle         
                                                  #    0.10  stalled cycles per insn
       664,251,364      branches                  #  430.049 M/sec                  
        16,397,360      branch-misses             #    2.47% of all branches        

       1.545212010 seconds time elapsed


real	0m1.539s
user	0m1.483s
sys	0m0.056s

 Performance counter stats for './__run 5':

       1540.946965      task-clock (msec)         #    1.000 CPUs utilized          
                 5      context-switches          #    0.003 K/sec                  
                 1      cpu-migrations            #    0.001 K/sec                  
             1,059      page-faults               #    0.687 K/sec                  
     4,930,842,492      cycles                    #    3.200 GHz                    
     1,228,490,562      stalled-cycles-frontend   #   24.91% frontend cycles idle   
    12,669,705,281      instructions              #    2.57  insn per cycle         
                                                  #    0.10  stalled cycles per insn
       664,205,407      branches                  #  431.037 M/sec                  
        16,359,096      branch-misses             #    2.46% of all branches        

       1.541310336 seconds time elapsed


real	0m1.711s
user	0m1.446s
sys	0m0.101s

 Performance counter stats for './__run 5':

       1548.706855      task-clock (msec)         #    0.904 CPUs utilized          
               121      context-switches          #    0.078 K/sec                  
                 3      cpu-migrations            #    0.002 K/sec                  
             1,064      page-faults               #    0.687 K/sec                  
     4,955,596,377      cycles                    #    3.200 GHz                    
     1,252,803,662      stalled-cycles-frontend   #   25.28% frontend cycles idle   
    12,674,824,077      instructions              #    2.56  insn per cycle         
                                                  #    0.10  stalled cycles per insn
       665,162,312      branches                  #  429.495 M/sec                  
        16,395,913      branch-misses             #    2.46% of all branches        

       1.713539482 seconds time elapsed


real	0m0.707s
user	0m0.674s
sys	0m0.032s

 Performance counter stats for './__run 6':

        708.866306      task-clock (msec)         #    0.999 CPUs utilized          
                 2      context-switches          #    0.003 K/sec                  
                 0      cpu-migrations            #    0.000 K/sec                  
             1,059      page-faults               #    0.001 M/sec                  
     2,263,335,503      cycles                    #    3.193 GHz                    
       561,533,109      stalled-cycles-frontend   #   24.81% frontend cycles idle   
     5,818,822,925      instructions              #    2.57  insn per cycle         
                                                  #    0.10  stalled cycles per insn
       305,703,699      branches                  #  431.257 M/sec                  
         7,559,608      branch-misses             #    2.47% of all branches        

       0.709366395 seconds time elapsed


real	0m0.723s
user	0m0.707s
sys	0m0.016s

 Performance counter stats for './__run 6':

        725.450983      task-clock (msec)         #    0.999 CPUs utilized          
                 5      context-switches          #    0.007 K/sec                  
                 0      cpu-migrations            #    0.000 K/sec                  
             1,056      page-faults               #    0.001 M/sec                  
     2,314,678,197      cycles                    #    3.191 GHz                    
       610,807,040      stalled-cycles-frontend   #   26.39% frontend cycles idle   
     5,818,837,742      instructions              #    2.51  insn per cycle         
                                                  #    0.10  stalled cycles per insn
       305,706,907      branches                  #  421.403 M/sec                  
         7,560,682      branch-misses             #    2.47% of all branches        

       0.726003083 seconds time elapsed


real	0m0.713s
user	0m0.685s
sys	0m0.028s

 Performance counter stats for './__run 6':

        715.291708      task-clock (msec)         #    1.000 CPUs utilized          
                 3      context-switches          #    0.004 K/sec                  
                 1      cpu-migrations            #    0.001 K/sec                  
             1,062      page-faults               #    0.001 M/sec                  
     2,284,331,270      cycles                    #    3.194 GHz                    
       582,847,423      stalled-cycles-frontend   #   25.52% frontend cycles idle   
     5,818,408,536      instructions              #    2.55  insn per cycle         
                                                  #    0.10  stalled cycles per insn
       305,634,414      branches                  #  427.286 M/sec                  
         7,552,054      branch-misses             #    2.47% of all branches        

       0.715629911 seconds time elapsed


real	0m5.196s
user	0m4.752s
sys	0m0.188s

 Performance counter stats for './__run 7':

       4943.143979      task-clock (msec)         #    0.951 CPUs utilized          
               340      context-switches          #    0.069 K/sec                  
                 3      cpu-migrations            #    0.001 K/sec                  
             1,058      page-faults               #    0.214 K/sec                  
    15,877,660,370      cycles                    #    3.212 GHz                    
     3,865,100,912      stalled-cycles-frontend   #   24.34% frontend cycles idle   
    41,132,485,612      instructions              #    2.59  insn per cycle         
                                                  #    0.09  stalled cycles per insn
     2,156,147,956      branches                  #  436.190 M/sec                  
        53,159,395      branch-misses             #    2.47% of all branches        

       5.199236903 seconds time elapsed


real	0m5.274s
user	0m4.916s
sys	0m0.156s

 Performance counter stats for './__run 7':

       5074.549408      task-clock (msec)         #    0.962 CPUs utilized          
                23      context-switches          #    0.005 K/sec                  
                 2      cpu-migrations            #    0.000 K/sec                  
             1,062      page-faults               #    0.209 K/sec                  
    16,221,765,733      cycles                    #    3.197 GHz                    
     4,199,102,276      stalled-cycles-frontend   #   25.89% frontend cycles idle   
    41,121,838,634      instructions              #    2.53  insn per cycle         
                                                  #    0.10  stalled cycles per insn
     2,154,047,824      branches                  #  424.481 M/sec                  
        53,066,043      branch-misses             #    2.46% of all branches        

       5.276409207 seconds time elapsed


real	0m5.284s
user	0m4.800s
sys	0m0.172s

 Performance counter stats for './__run 7':

       4974.914687      task-clock (msec)         #    0.941 CPUs utilized          
               268      context-switches          #    0.054 K/sec                  
                 1      cpu-migrations            #    0.000 K/sec                  
             1,059      page-faults               #    0.213 K/sec                  
    15,987,048,099      cycles                    #    3.214 GHz                    
     3,974,776,752      stalled-cycles-frontend   #   24.86% frontend cycles idle   
    41,126,151,088      instructions              #    2.57  insn per cycle         
                                                  #    0.10  stalled cycles per insn
     2,154,965,075      branches                  #  433.166 M/sec                  
        53,099,784      branch-misses             #    2.46% of all branches        

       5.286809551 seconds time elapsed


real	0m16.734s
user	0m15.032s
sys	0m0.683s

 Performance counter stats for './__run 8':

      15718.368560      task-clock (msec)         #    0.939 CPUs utilized          
               737      context-switches          #    0.047 K/sec                  
                13      cpu-migrations            #    0.001 K/sec                  
             1,057      page-faults               #    0.067 K/sec                  
    50,434,930,300      cycles                    #    3.209 GHz                    
    12,661,846,623      stalled-cycles-frontend   #   25.11% frontend cycles idle   
   129,348,867,953      instructions              #    2.56  insn per cycle         
                                                  #    0.10  stalled cycles per insn
     6,775,478,607      branches                  #  431.055 M/sec                  
       166,974,038      branch-misses             #    2.46% of all branches        

      16.736808112 seconds time elapsed


real	0m16.429s
user	0m15.201s
sys	0m0.548s

 Performance counter stats for './__run 8':

      15752.314329      task-clock (msec)         #    0.959 CPUs utilized          
               735      context-switches          #    0.047 K/sec                  
                 5      cpu-migrations            #    0.000 K/sec                  
             1,063      page-faults               #    0.067 K/sec                  
    50,580,852,616      cycles                    #    3.211 GHz                    
    12,794,729,997      stalled-cycles-frontend   #   25.30% frontend cycles idle   
   129,342,466,401      instructions              #    2.56  insn per cycle         
                                                  #    0.10  stalled cycles per insn
     6,774,305,873      branches                  #  430.051 M/sec                  
       166,994,704      branch-misses             #    2.47% of all branches        

      16.432423198 seconds time elapsed


real	0m16.424s
user	0m15.073s
sys	0m0.671s

 Performance counter stats for './__run 8':

      15749.104833      task-clock (msec)         #    0.959 CPUs utilized          
             1,230      context-switches          #    0.078 K/sec                  
                 3      cpu-migrations            #    0.000 K/sec                  
             1,059      page-faults               #    0.067 K/sec                  
    50,620,822,580      cycles                    #    3.214 GHz                    
    12,847,399,345      stalled-cycles-frontend   #   25.38% frontend cycles idle   
   129,374,548,915      instructions              #    2.56  insn per cycle         
                                                  #    0.10  stalled cycles per insn
     6,780,306,803      branches                  #  430.520 M/sec                  
       167,203,736      branch-misses             #    2.47% of all branches        

      16.426767610 seconds time elapsed


real	0m0.500s
user	0m0.480s
sys	0m0.020s

 Performance counter stats for './__run 9':

        503.079844      task-clock (msec)         #    0.999 CPUs utilized          
                 4      context-switches          #    0.008 K/sec                  
                 1      cpu-migrations            #    0.002 K/sec                  
             1,058      page-faults               #    0.002 M/sec                  
     1,605,083,376      cycles                    #    3.191 GHz                    
       432,886,780      stalled-cycles-frontend   #   26.97% frontend cycles idle   
     3,997,869,428      instructions              #    2.49  insn per cycle         
                                                  #    0.11  stalled cycles per insn
       210,454,770      branches                  #  418.333 M/sec                  
         5,202,473      branch-misses             #    2.47% of all branches        

       0.503657618 seconds time elapsed


real	0m0.488s
user	0m0.456s
sys	0m0.032s

 Performance counter stats for './__run 9':

        490.928313      task-clock (msec)         #    0.999 CPUs utilized          
                 4      context-switches          #    0.008 K/sec                  
                 0      cpu-migrations            #    0.000 K/sec                  
             1,059      page-faults               #    0.002 M/sec                  
     1,572,344,418      cycles                    #    3.203 GHz                    
       402,570,684      stalled-cycles-frontend   #   25.60% frontend cycles idle   
     3,997,853,683      instructions              #    2.54  insn per cycle         
                                                  #    0.10  stalled cycles per insn
       210,453,468      branches                  #  428.685 M/sec                  
         5,195,567      branch-misses             #    2.47% of all branches        

       0.491277720 seconds time elapsed


real	0m0.648s
user	0m0.492s
sys	0m0.012s

 Performance counter stats for './__run 9':

        506.852985      task-clock (msec)         #    0.778 CPUs utilized          
                 6      context-switches          #    0.012 K/sec                  
                 1      cpu-migrations            #    0.002 K/sec                  
             1,055      page-faults               #    0.002 M/sec                  
     1,568,157,977      cycles                    #    3.094 GHz                    
       398,124,165      stalled-cycles-frontend   #   25.39% frontend cycles idle   
     3,998,368,782      instructions              #    2.55  insn per cycle         
                                                  #    0.10  stalled cycles per insn
       210,539,060      branches                  #  415.385 M/sec                  
         5,203,692      branch-misses             #    2.47% of all branches        

       0.651218470 seconds time elapsed


real	0m11.946s
user	0m10.923s
sys	0m0.448s

 Performance counter stats for './__run 10':

      11374.936872      task-clock (msec)         #    0.952 CPUs utilized          
               337      context-switches          #    0.030 K/sec                  
                 7      cpu-migrations            #    0.001 K/sec                  
             1,060      page-faults               #    0.093 K/sec                  
    36,526,372,836      cycles                    #    3.211 GHz                    
     9,122,731,505      stalled-cycles-frontend   #   24.98% frontend cycles idle   
    93,773,926,731      instructions              #    2.57  insn per cycle         
                                                  #    0.10  stalled cycles per insn
     4,911,176,676      branches                  #  431.754 M/sec                  
       121,070,952      branch-misses             #    2.47% of all branches        

      11.949102064 seconds time elapsed


real	0m11.940s
user	0m10.978s
sys	0m0.473s

 Performance counter stats for './__run 10':

      11454.020969      task-clock (msec)         #    0.959 CPUs utilized          
               417      context-switches          #    0.036 K/sec                  
                 6      cpu-migrations            #    0.001 K/sec                  
             1,062      page-faults               #    0.093 K/sec                  
    36,821,859,706      cycles                    #    3.215 GHz                    
     9,432,112,707      stalled-cycles-frontend   #   25.62% frontend cycles idle   
    93,777,052,478      instructions              #    2.55  insn per cycle         
                                                  #    0.10  stalled cycles per insn
     4,911,791,633      branches                  #  428.827 M/sec                  
       121,378,734      branch-misses             #    2.47% of all branches        

      11.942541153 seconds time elapsed


real	0m12.118s
user	0m11.006s
sys	0m0.468s

 Performance counter stats for './__run 10':

      11477.787734      task-clock (msec)         #    0.947 CPUs utilized          
               695      context-switches          #    0.061 K/sec                  
                 5      cpu-migrations            #    0.000 K/sec                  
             1,063      page-faults               #    0.093 K/sec                  
    36,854,615,195      cycles                    #    3.211 GHz                    
     9,447,813,238      stalled-cycles-frontend   #   25.64% frontend cycles idle   
    93,786,204,514      instructions              #    2.54  insn per cycle         
                                                  #    0.10  stalled cycles per insn
     4,913,531,801      branches                  #  428.090 M/sec                  
       121,158,979      branch-misses             #    2.47% of all branches        

      12.120782950 seconds time elapsed

