
real	0m2.585s
user	0m2.279s
sys	0m0.300s

 Performance counter stats for './__run 1':

       2580.490250      task-clock (msec)         #    0.997 CPUs utilized          
               295      context-switches          #    0.114 K/sec                  
                 0      cpu-migrations            #    0.000 K/sec                  
           122,716      page-faults               #    0.048 M/sec                  
     8,389,125,500      cycles                    #    3.251 GHz                    
     2,311,567,702      stalled-cycles-frontend   #   27.55% frontend cycles idle   
    15,698,174,594      instructions              #    1.87  insn per cycle         
                                                  #    0.15  stalled cycles per insn
     3,131,974,108      branches                  # 1213.713 M/sec                  
        22,594,984      branch-misses             #    0.72% of all branches        

       2.587151016 seconds time elapsed


real	0m2.584s
user	0m2.223s
sys	0m0.355s

 Performance counter stats for './__run 1':

       2579.822456      task-clock (msec)         #    0.997 CPUs utilized          
               310      context-switches          #    0.120 K/sec                  
                 0      cpu-migrations            #    0.000 K/sec                  
           122,718      page-faults               #    0.048 M/sec                  
     8,396,755,976      cycles                    #    3.255 GHz                    
     2,305,878,143      stalled-cycles-frontend   #   27.46% frontend cycles idle   
    15,700,939,841      instructions              #    1.87  insn per cycle         
                                                  #    0.15  stalled cycles per insn
     3,132,964,027      branches                  # 1214.411 M/sec                  
        22,862,422      branch-misses             #    0.73% of all branches        

       2.586809847 seconds time elapsed


real	0m2.595s
user	0m2.185s
sys	0m0.403s

 Performance counter stats for './__run 1':

       2591.250533      task-clock (msec)         #    0.997 CPUs utilized          
               235      context-switches          #    0.091 K/sec                  
                 1      cpu-migrations            #    0.000 K/sec                  
           122,717      page-faults               #    0.047 M/sec                  
     8,406,387,866      cycles                    #    3.244 GHz                    
     2,325,630,092      stalled-cycles-frontend   #   27.67% frontend cycles idle   
    15,699,010,673      instructions              #    1.87  insn per cycle         
                                                  #    0.15  stalled cycles per insn
     3,132,307,603      branches                  # 1208.802 M/sec                  
        22,298,974      branch-misses             #    0.71% of all branches        

       2.597820045 seconds time elapsed


real	0m1.584s
user	0m1.377s
sys	0m0.203s

 Performance counter stats for './__run 2':

       1582.587719      task-clock (msec)         #    0.997 CPUs utilized          
               180      context-switches          #    0.114 K/sec                  
                 1      cpu-migrations            #    0.001 K/sec                  
            73,731      page-faults               #    0.047 M/sec                  
     5,153,793,245      cycles                    #    3.257 GHz                    
     1,487,167,874      stalled-cycles-frontend   #   28.86% frontend cycles idle   
     9,421,736,051      instructions              #    1.83  insn per cycle         
                                                  #    0.16  stalled cycles per insn
     1,879,864,407      branches                  # 1187.842 M/sec                  
        16,341,605      branch-misses             #    0.87% of all branches        

       1.586560284 seconds time elapsed


real	0m1.556s
user	0m1.345s
sys	0m0.207s

 Performance counter stats for './__run 2':

       1554.396298      task-clock (msec)         #    0.997 CPUs utilized          
               163      context-switches          #    0.105 K/sec                  
                 0      cpu-migrations            #    0.000 K/sec                  
            73,731      page-faults               #    0.047 M/sec                  
     5,041,589,589      cycles                    #    3.243 GHz                    
     1,392,626,203      stalled-cycles-frontend   #   27.62% frontend cycles idle   
     9,422,176,067      instructions              #    1.87  insn per cycle         
                                                  #    0.15  stalled cycles per insn
     1,880,072,822      branches                  # 1209.520 M/sec                  
        13,226,768      branch-misses             #    0.70% of all branches        

       1.558637558 seconds time elapsed


real	0m1.552s
user	0m1.297s
sys	0m0.251s

 Performance counter stats for './__run 2':

       1550.151696      task-clock (msec)         #    0.998 CPUs utilized          
               119      context-switches          #    0.077 K/sec                  
                 0      cpu-migrations            #    0.000 K/sec                  
            73,733      page-faults               #    0.048 M/sec                  
     5,026,337,852      cycles                    #    3.242 GHz                    
     1,381,543,908      stalled-cycles-frontend   #   27.49% frontend cycles idle   
     9,419,433,586      instructions              #    1.87  insn per cycle         
                                                  #    0.15  stalled cycles per insn
     1,879,130,927      branches                  # 1212.224 M/sec                  
        13,264,032      branch-misses             #    0.71% of all branches        

       1.554028838 seconds time elapsed


real	0m1.042s
user	0m0.871s
sys	0m0.168s

 Performance counter stats for './__run 3':

       1041.628856      task-clock (msec)         #    0.997 CPUs utilized          
               118      context-switches          #    0.113 K/sec                  
                 0      cpu-migrations            #    0.000 K/sec                  
            49,238      page-faults               #    0.047 M/sec                  
     3,380,758,225      cycles                    #    3.246 GHz                    
       947,018,277      stalled-cycles-frontend   #   28.01% frontend cycles idle   
     6,281,819,524      instructions              #    1.86  insn per cycle         
                                                  #    0.15  stalled cycles per insn
     1,253,202,467      branches                  # 1203.118 M/sec                  
         9,197,726      branch-misses             #    0.73% of all branches        

       1.044482805 seconds time elapsed


real	0m1.044s
user	0m0.882s
sys	0m0.160s

 Performance counter stats for './__run 3':

       1043.586149      task-clock (msec)         #    0.997 CPUs utilized          
               113      context-switches          #    0.108 K/sec                  
                 3      cpu-migrations            #    0.003 K/sec                  
            49,243      page-faults               #    0.047 M/sec                  
     3,358,453,487      cycles                    #    3.218 GHz                    
       931,026,273      stalled-cycles-frontend   #   27.72% frontend cycles idle   
     6,281,761,507      instructions              #    1.87  insn per cycle         
                                                  #    0.15  stalled cycles per insn
     1,253,196,736      branches                  # 1200.856 M/sec                  
         8,799,065      branch-misses             #    0.70% of all branches        

       1.046804692 seconds time elapsed


real	0m1.051s
user	0m0.940s
sys	0m0.108s

 Performance counter stats for './__run 3':

       1051.252892      task-clock (msec)         #    0.997 CPUs utilized          
               105      context-switches          #    0.100 K/sec                  
                 0      cpu-migrations            #    0.000 K/sec                  
            49,235      page-faults               #    0.047 M/sec                  
     3,415,169,517      cycles                    #    3.249 GHz                    
       972,054,066      stalled-cycles-frontend   #   28.46% frontend cycles idle   
     6,282,797,153      instructions              #    1.84  insn per cycle         
                                                  #    0.15  stalled cycles per insn
     1,253,579,743      branches                  # 1192.463 M/sec                  
        10,768,752      branch-misses             #    0.86% of all branches        

       1.054023621 seconds time elapsed


real	0m0.797s
user	0m0.703s
sys	0m0.092s

 Performance counter stats for './__run 4':

        797.250965      task-clock (msec)         #    0.997 CPUs utilized          
                82      context-switches          #    0.103 K/sec                  
                 0      cpu-migrations            #    0.000 K/sec                  
            36,994      page-faults               #    0.046 M/sec                  
     2,565,137,745      cycles                    #    3.217 GHz                    
       730,768,666      stalled-cycles-frontend   #   28.49% frontend cycles idle   
     4,713,485,388      instructions              #    1.84  insn per cycle         
                                                  #    0.16  stalled cycles per insn
       940,485,048      branches                  # 1179.660 M/sec                  
         8,120,510      branch-misses             #    0.86% of all branches        

       0.799610885 seconds time elapsed


real	0m0.806s
user	0m0.703s
sys	0m0.101s

 Performance counter stats for './__run 4':

        805.901563      task-clock (msec)         #    0.997 CPUs utilized          
               100      context-switches          #    0.124 K/sec                  
                 1      cpu-migrations            #    0.001 K/sec                  
            36,991      page-faults               #    0.046 M/sec                  
     2,578,336,249      cycles                    #    3.199 GHz                    
       743,698,251      stalled-cycles-frontend   #   28.84% frontend cycles idle   
     4,713,527,802      instructions              #    1.83  insn per cycle         
                                                  #    0.16  stalled cycles per insn
       940,491,241      branches                  # 1167.005 M/sec                  
         8,166,365      branch-misses             #    0.87% of all branches        

       0.808598097 seconds time elapsed


real	0m0.782s
user	0m0.716s
sys	0m0.064s

 Performance counter stats for './__run 4':

        781.928211      task-clock (msec)         #    0.997 CPUs utilized          
                92      context-switches          #    0.118 K/sec                  
                 0      cpu-migrations            #    0.000 K/sec                  
            36,991      page-faults               #    0.047 M/sec                  
     2,522,711,326      cycles                    #    3.226 GHz                    
       696,833,010      stalled-cycles-frontend   #   27.62% frontend cycles idle   
     4,712,713,980      instructions              #    1.87  insn per cycle         
                                                  #    0.15  stalled cycles per insn
       940,199,587      branches                  # 1202.412 M/sec                  
         6,683,877      branch-misses             #    0.71% of all branches        

       0.784372546 seconds time elapsed


real	0m0.522s
user	0m0.457s
sys	0m0.064s

 Performance counter stats for './__run 5':

        523.361729      task-clock (msec)         #    0.997 CPUs utilized          
                47      context-switches          #    0.090 K/sec                  
                 1      cpu-migrations            #    0.002 K/sec                  
            24,749      page-faults               #    0.047 M/sec                  
     1,685,816,508      cycles                    #    3.221 GHz                    
       469,189,068      stalled-cycles-frontend   #   27.83% frontend cycles idle   
     3,144,066,477      instructions              #    1.87  insn per cycle         
                                                  #    0.15  stalled cycles per insn
       627,340,378      branches                  # 1198.675 M/sec                  
         4,496,746      branch-misses             #    0.72% of all branches        

       0.524857209 seconds time elapsed


real	0m0.522s
user	0m0.469s
sys	0m0.052s

 Performance counter stats for './__run 5':

        523.622172      task-clock (msec)         #    0.997 CPUs utilized          
                63      context-switches          #    0.120 K/sec                  
                 0      cpu-migrations            #    0.000 K/sec                  
            24,749      page-faults               #    0.047 M/sec                  
     1,674,061,770      cycles                    #    3.197 GHz                    
       458,785,065      stalled-cycles-frontend   #   27.41% frontend cycles idle   
     3,144,161,182      instructions              #    1.88  insn per cycle         
                                                  #    0.15  stalled cycles per insn
       627,356,583      branches                  # 1198.109 M/sec                  
         4,425,739      branch-misses             #    0.71% of all branches        

       0.525163107 seconds time elapsed


real	0m0.525s
user	0m0.463s
sys	0m0.060s

 Performance counter stats for './__run 5':

        525.753947      task-clock (msec)         #    0.997 CPUs utilized          
                41      context-switches          #    0.078 K/sec                  
                 1      cpu-migrations            #    0.002 K/sec                  
            24,748      page-faults               #    0.047 M/sec                  
     1,683,909,303      cycles                    #    3.203 GHz                    
       467,787,000      stalled-cycles-frontend   #   27.78% frontend cycles idle   
     3,143,704,048      instructions              #    1.87  insn per cycle         
                                                  #    0.15  stalled cycles per insn
       627,227,367      branches                  # 1193.006 M/sec                  
         4,491,052      branch-misses             #    0.72% of all branches        

       0.527355018 seconds time elapsed


real	0m0.269s
user	0m0.236s
sys	0m0.032s

 Performance counter stats for './__run 6':

        270.527603      task-clock (msec)         #    0.995 CPUs utilized          
                33      context-switches          #    0.122 K/sec                  
                 1      cpu-migrations            #    0.004 K/sec                  
            12,503      page-faults               #    0.046 M/sec                  
       863,652,955      cycles                    #    3.192 GHz                    
       251,044,403      stalled-cycles-frontend   #   29.07% frontend cycles idle   
     1,574,682,621      instructions              #    1.82  insn per cycle         
                                                  #    0.16  stalled cycles per insn
       314,177,745      branches                  # 1161.352 M/sec                  
         2,751,884      branch-misses             #    0.88% of all branches        

       0.271897726 seconds time elapsed


real	0m0.271s
user	0m0.226s
sys	0m0.044s

 Performance counter stats for './__run 6':

        272.389547      task-clock (msec)         #    0.996 CPUs utilized          
                23      context-switches          #    0.084 K/sec                  
                 0      cpu-migrations            #    0.000 K/sec                  
            12,500      page-faults               #    0.046 M/sec                  
       860,882,643      cycles                    #    3.160 GHz                    
       249,683,150      stalled-cycles-frontend   #   29.00% frontend cycles idle   
     1,574,647,469      instructions              #    1.83  insn per cycle         
                                                  #    0.16  stalled cycles per insn
       314,192,694      branches                  # 1153.468 M/sec                  
         2,349,189      branch-misses             #    0.75% of all branches        

       0.273428102 seconds time elapsed


real	0m0.270s
user	0m0.228s
sys	0m0.041s

 Performance counter stats for './__run 6':

        271.730295      task-clock (msec)         #    0.996 CPUs utilized          
                25      context-switches          #    0.092 K/sec                  
                 0      cpu-migrations            #    0.000 K/sec                  
            12,500      page-faults               #    0.046 M/sec                  
       860,495,653      cycles                    #    3.167 GHz                    
       250,089,221      stalled-cycles-frontend   #   29.06% frontend cycles idle   
     1,574,684,374      instructions              #    1.83  insn per cycle         
                                                  #    0.16  stalled cycles per insn
       314,199,848      branches                  # 1156.293 M/sec                  
         2,275,308      branch-misses             #    0.72% of all branches        

       0.272840818 seconds time elapsed


real	0m0.211s
user	0m0.171s
sys	0m0.040s

 Performance counter stats for './__run 7':

        213.219645      task-clock (msec)         #    0.996 CPUs utilized          
                23      context-switches          #    0.108 K/sec                  
                 0      cpu-migrations            #    0.000 K/sec                  
            10,049      page-faults               #    0.047 M/sec                  
       677,989,547      cycles                    #    3.180 GHz                    
       190,030,626      stalled-cycles-frontend   #   28.03% frontend cycles idle   
     1,261,098,970      instructions              #    1.86  insn per cycle         
                                                  #    0.15  stalled cycles per insn
       251,638,251      branches                  # 1180.183 M/sec                  
         1,817,063      branch-misses             #    0.72% of all branches        

       0.214162770 seconds time elapsed


real	0m0.215s
user	0m0.191s
sys	0m0.024s

 Performance counter stats for './__run 7':

        217.589691      task-clock (msec)         #    0.996 CPUs utilized          
                25      context-switches          #    0.115 K/sec                  
                 0      cpu-migrations            #    0.000 K/sec                  
            10,053      page-faults               #    0.046 M/sec                  
       686,204,381      cycles                    #    3.154 GHz                    
       194,519,247      stalled-cycles-frontend   #   28.35% frontend cycles idle   
     1,260,899,544      instructions              #    1.84  insn per cycle         
                                                  #    0.15  stalled cycles per insn
       251,579,026      branches                  # 1156.208 M/sec                  
         2,188,506      branch-misses             #    0.87% of all branches        

       0.218491419 seconds time elapsed


real	0m0.220s
user	0m0.195s
sys	0m0.024s

 Performance counter stats for './__run 7':

        222.200847      task-clock (msec)         #    0.996 CPUs utilized          
                24      context-switches          #    0.108 K/sec                  
                 0      cpu-migrations            #    0.000 K/sec                  
            10,050      page-faults               #    0.045 M/sec                  
       695,008,771      cycles                    #    3.128 GHz                    
       203,690,965      stalled-cycles-frontend   #   29.31% frontend cycles idle   
     1,261,197,077      instructions              #    1.81  insn per cycle         
                                                  #    0.16  stalled cycles per insn
       251,663,738      branches                  # 1132.596 M/sec                  
         2,304,718      branch-misses             #    0.92% of all branches        

       0.223089094 seconds time elapsed


real	0m0.110s
user	0m0.094s
sys	0m0.016s

 Performance counter stats for './__run 8':

        113.473337      task-clock (msec)         #    0.995 CPUs utilized          
                 7      context-switches          #    0.062 K/sec                  
                 0      cpu-migrations            #    0.000 K/sec                  
             5,152      page-faults               #    0.045 M/sec                  
       348,783,515      cycles                    #    3.074 GHz                    
       103,239,377      stalled-cycles-frontend   #   29.60% frontend cycles idle   
       633,408,629      instructions              #    1.82  insn per cycle         
                                                  #    0.16  stalled cycles per insn
       126,401,265      branches                  # 1113.929 M/sec                  
           952,230      branch-misses             #    0.75% of all branches        

       0.114063116 seconds time elapsed


real	0m0.115s
user	0m0.103s
sys	0m0.012s

 Performance counter stats for './__run 8':

        118.198034      task-clock (msec)         #    0.995 CPUs utilized          
                 9      context-switches          #    0.076 K/sec                  
                 0      cpu-migrations            #    0.000 K/sec                  
             5,154      page-faults               #    0.044 M/sec                  
       356,712,122      cycles                    #    3.018 GHz                    
       109,299,371      stalled-cycles-frontend   #   30.64% frontend cycles idle   
       633,605,561      instructions              #    1.78  insn per cycle         
                                                  #    0.17  stalled cycles per insn
       126,456,918      branches                  # 1069.873 M/sec                  
         1,177,276      branch-misses             #    0.93% of all branches        

       0.118828994 seconds time elapsed


real	0m0.112s
user	0m0.096s
sys	0m0.016s

 Performance counter stats for './__run 8':

        114.315668      task-clock (msec)         #    0.992 CPUs utilized          
                19      context-switches          #    0.166 K/sec                  
                 0      cpu-migrations            #    0.000 K/sec                  
             5,151      page-faults               #    0.045 M/sec                  
       347,140,322      cycles                    #    3.037 GHz                    
       101,321,995      stalled-cycles-frontend   #   29.19% frontend cycles idle   
       633,484,595      instructions              #    1.82  insn per cycle         
                                                  #    0.16  stalled cycles per insn
       126,410,107      branches                  # 1105.799 M/sec                  
           962,305      branch-misses             #    0.76% of all branches        

       0.115233090 seconds time elapsed


real	0m0.086s
user	0m0.070s
sys	0m0.016s

 Performance counter stats for './__run 9':

         88.641112      task-clock (msec)         #    0.994 CPUs utilized          
                 6      context-switches          #    0.068 K/sec                  
                 0      cpu-migrations            #    0.000 K/sec                  
             3,927      page-faults               #    0.044 M/sec                  
       261,772,453      cycles                    #    2.953 GHz                    
        76,989,515      stalled-cycles-frontend   #   29.41% frontend cycles idle   
       476,749,185      instructions              #    1.82  insn per cycle         
                                                  #    0.16  stalled cycles per insn
        95,161,517      branches                  # 1073.560 M/sec                  
           721,452      branch-misses             #    0.76% of all branches        

       0.089175854 seconds time elapsed


real	0m0.086s
user	0m0.082s
sys	0m0.004s

 Performance counter stats for './__run 9':

         89.258553      task-clock (msec)         #    0.991 CPUs utilized          
                13      context-switches          #    0.146 K/sec                  
                 0      cpu-migrations            #    0.000 K/sec                  
             3,928      page-faults               #    0.044 M/sec                  
       264,161,484      cycles                    #    2.960 GHz                    
        79,091,355      stalled-cycles-frontend   #   29.94% frontend cycles idle   
       476,770,464      instructions              #    1.80  insn per cycle         
                                                  #    0.17  stalled cycles per insn
        95,145,826      branches                  # 1065.958 M/sec                  
           721,848      branch-misses             #    0.76% of all branches        

       0.090057519 seconds time elapsed


real	0m0.088s
user	0m0.084s
sys	0m0.004s

 Performance counter stats for './__run 9':

         90.914988      task-clock (msec)         #    0.995 CPUs utilized          
                 6      context-switches          #    0.066 K/sec                  
                 0      cpu-migrations            #    0.000 K/sec                  
             3,927      page-faults               #    0.043 M/sec                  
       262,172,839      cycles                    #    2.884 GHz                    
        76,950,156      stalled-cycles-frontend   #   29.35% frontend cycles idle   
       476,711,189      instructions              #    1.82  insn per cycle         
                                                  #    0.16  stalled cycles per insn
        95,139,426      branches                  # 1046.466 M/sec                  
           738,424      branch-misses             #    0.78% of all branches        

       0.091380099 seconds time elapsed


real	0m0.060s
user	0m0.052s
sys	0m0.008s

 Performance counter stats for './__run 10':

         63.055445      task-clock (msec)         #    0.990 CPUs utilized          
                 9      context-switches          #    0.143 K/sec                  
                 1      cpu-migrations            #    0.016 K/sec                  
             2,706      page-faults               #    0.043 M/sec                  
       180,021,928      cycles                    #    2.855 GHz                    
        55,705,869      stalled-cycles-frontend   #   30.94% frontend cycles idle   
       320,183,318      instructions              #    1.78  insn per cycle         
                                                  #    0.17  stalled cycles per insn
        63,910,889      branches                  # 1013.567 M/sec                  
           509,885      branch-misses             #    0.80% of all branches        

       0.063721306 seconds time elapsed


real	0m0.060s
user	0m0.047s
sys	0m0.013s

 Performance counter stats for './__run 10':

         62.926439      task-clock (msec)         #    0.991 CPUs utilized          
                10      context-switches          #    0.159 K/sec                  
                 0      cpu-migrations            #    0.000 K/sec                  
             2,707      page-faults               #    0.043 M/sec                  
       178,993,767      cycles                    #    2.844 GHz                    
        54,823,453      stalled-cycles-frontend   #   30.63% frontend cycles idle   
       320,167,529      instructions              #    1.79  insn per cycle         
                                                  #    0.17  stalled cycles per insn
        63,908,985      branches                  # 1015.614 M/sec                  
           505,009      branch-misses             #    0.79% of all branches        

       0.063517131 seconds time elapsed


real	0m0.058s
user	0m0.058s
sys	0m0.000s

 Performance counter stats for './__run 10':

         60.989269      task-clock (msec)         #    0.991 CPUs utilized          
                 4      context-switches          #    0.066 K/sec                  
                 0      cpu-migrations            #    0.000 K/sec                  
             2,705      page-faults               #    0.044 M/sec                  
       180,262,536      cycles                    #    2.956 GHz                    
        56,068,591      stalled-cycles-frontend   #   31.10% frontend cycles idle   
       320,047,517      instructions              #    1.78  insn per cycle         
                                                  #    0.18  stalled cycles per insn
        63,892,845      branches                  # 1047.608 M/sec                  
           501,754      branch-misses             #    0.79% of all branches        

       0.061537076 seconds time elapsed

