
real	0m2.572s
user	0m2.226s
sys	0m0.339s

 Performance counter stats for './__run 1':

       2567.235205      task-clock (msec)         #    0.997 CPUs utilized          
               286      context-switches          #    0.111 K/sec                  
                 0      cpu-migrations            #    0.000 K/sec                  
           122,720      page-faults               #    0.048 M/sec                  
     8,347,678,919      cycles                    #    3.252 GHz                    
     2,284,898,584      stalled-cycles-frontend   #   27.37% frontend cycles idle   
    15,699,025,424      instructions              #    1.88  insn per cycle         
                                                  #    0.15  stalled cycles per insn
     3,131,944,699      branches                  # 1219.968 M/sec                  
        21,739,396      branch-misses             #    0.69% of all branches        

       2.574071890 seconds time elapsed


real	0m2.589s
user	0m2.247s
sys	0m0.336s

 Performance counter stats for './__run 1':

       2584.711713      task-clock (msec)         #    0.997 CPUs utilized          
               303      context-switches          #    0.117 K/sec                  
                 1      cpu-migrations            #    0.000 K/sec                  
           122,718      page-faults               #    0.047 M/sec                  
     8,402,332,106      cycles                    #    3.251 GHz                    
     2,335,243,653      stalled-cycles-frontend   #   27.79% frontend cycles idle   
    15,702,104,222      instructions              #    1.87  insn per cycle         
                                                  #    0.15  stalled cycles per insn
     3,132,943,335      branches                  # 1212.106 M/sec                  
        21,938,545      branch-misses             #    0.70% of all branches        

       2.591710138 seconds time elapsed


real	0m2.572s
user	0m2.206s
sys	0m0.359s

 Performance counter stats for './__run 1':

       2568.120727      task-clock (msec)         #    0.998 CPUs utilized          
               302      context-switches          #    0.118 K/sec                  
                 1      cpu-migrations            #    0.000 K/sec                  
           122,717      page-faults               #    0.048 M/sec                  
     8,356,356,328      cycles                    #    3.254 GHz                    
     2,286,961,478      stalled-cycles-frontend   #   27.37% frontend cycles idle   
    15,700,434,433      instructions              #    1.88  insn per cycle         
                                                  #    0.15  stalled cycles per insn
     3,132,406,677      branches                  # 1219.727 M/sec                  
        22,494,510      branch-misses             #    0.72% of all branches        

       2.574475377 seconds time elapsed


real	0m1.537s
user	0m1.350s
sys	0m0.184s

 Performance counter stats for './__run 2':

       1535.634981      task-clock (msec)         #    0.998 CPUs utilized          
               175      context-switches          #    0.114 K/sec                  
                 1      cpu-migrations            #    0.001 K/sec                  
            73,732      page-faults               #    0.048 M/sec                  
     5,017,892,962      cycles                    #    3.268 GHz                    
     1,374,571,918      stalled-cycles-frontend   #   27.39% frontend cycles idle   
     9,422,368,470      instructions              #    1.88  insn per cycle         
                                                  #    0.15  stalled cycles per insn
     1,879,863,297      branches                  # 1224.160 M/sec                  
        13,425,734      branch-misses             #    0.71% of all branches        

       1.539379439 seconds time elapsed


real	0m1.560s
user	0m1.322s
sys	0m0.236s

 Performance counter stats for './__run 2':

       1559.396064      task-clock (msec)         #    0.997 CPUs utilized          
               180      context-switches          #    0.115 K/sec                  
                 0      cpu-migrations            #    0.000 K/sec                  
            73,731      page-faults               #    0.047 M/sec                  
     5,081,605,688      cycles                    #    3.259 GHz                    
     1,428,073,091      stalled-cycles-frontend   #   28.10% frontend cycles idle   
     9,421,641,399      instructions              #    1.85  insn per cycle         
                                                  #    0.15  stalled cycles per insn
     1,879,581,431      branches                  # 1205.327 M/sec                  
        13,095,720      branch-misses             #    0.70% of all branches        

       1.563364496 seconds time elapsed


real	0m1.538s
user	0m1.328s
sys	0m0.208s

 Performance counter stats for './__run 2':

       1537.046253      task-clock (msec)         #    0.997 CPUs utilized          
               122      context-switches          #    0.079 K/sec                  
                 0      cpu-migrations            #    0.000 K/sec                  
            73,734      page-faults               #    0.048 M/sec                  
     5,005,947,500      cycles                    #    3.257 GHz                    
     1,368,933,501      stalled-cycles-frontend   #   27.35% frontend cycles idle   
     9,420,842,117      instructions              #    1.88  insn per cycle         
                                                  #    0.15  stalled cycles per insn
     1,879,424,952      branches                  # 1222.751 M/sec                  
        12,988,487      branch-misses             #    0.69% of all branches        

       1.540915265 seconds time elapsed


real	0m1.060s
user	0m0.926s
sys	0m0.132s

 Performance counter stats for './__run 3':

       1059.863819      task-clock (msec)         #    0.997 CPUs utilized          
               118      context-switches          #    0.111 K/sec                  
                 0      cpu-migrations            #    0.000 K/sec                  
            49,241      page-faults               #    0.046 M/sec                  
     3,443,191,138      cycles                    #    3.249 GHz                    
     1,003,254,604      stalled-cycles-frontend   #   29.14% frontend cycles idle   
     6,283,360,223      instructions              #    1.82  insn per cycle         
                                                  #    0.16  stalled cycles per insn
     1,253,629,161      branches                  # 1182.821 M/sec                  
         8,640,467      branch-misses             #    0.69% of all branches        

       1.062756668 seconds time elapsed


real	0m1.051s
user	0m0.885s
sys	0m0.163s

 Performance counter stats for './__run 3':

       1050.729115      task-clock (msec)         #    0.997 CPUs utilized          
               117      context-switches          #    0.111 K/sec                  
                 2      cpu-migrations            #    0.002 K/sec                  
            49,241      page-faults               #    0.047 M/sec                  
     3,368,357,265      cycles                    #    3.206 GHz                    
       940,790,433      stalled-cycles-frontend   #   27.93% frontend cycles idle   
     6,283,365,888      instructions              #    1.87  insn per cycle         
                                                  #    0.15  stalled cycles per insn
     1,253,716,452      branches                  # 1193.187 M/sec                  
         8,730,622      branch-misses             #    0.70% of all branches        

       1.053890353 seconds time elapsed


real	0m1.034s
user	0m0.912s
sys	0m0.120s

 Performance counter stats for './__run 3':

       1033.681515      task-clock (msec)         #    0.997 CPUs utilized          
               130      context-switches          #    0.126 K/sec                  
                 0      cpu-migrations            #    0.000 K/sec                  
            49,238      page-faults               #    0.048 M/sec                  
     3,344,858,976      cycles                    #    3.236 GHz                    
       912,137,325      stalled-cycles-frontend   #   27.27% frontend cycles idle   
     6,283,796,948      instructions              #    1.88  insn per cycle         
                                                  #    0.15  stalled cycles per insn
     1,253,810,728      branches                  # 1212.957 M/sec                  
         8,856,552      branch-misses             #    0.71% of all branches        

       1.036618792 seconds time elapsed


real	0m0.782s
user	0m0.700s
sys	0m0.080s

 Performance counter stats for './__run 4':

        782.611087      task-clock (msec)         #    0.997 CPUs utilized          
                79      context-switches          #    0.101 K/sec                  
                 1      cpu-migrations            #    0.001 K/sec                  
            36,995      page-faults               #    0.047 M/sec                  
     2,517,595,053      cycles                    #    3.217 GHz                    
       694,111,914      stalled-cycles-frontend   #   27.57% frontend cycles idle   
     4,713,532,882      instructions              #    1.87  insn per cycle         
                                                  #    0.15  stalled cycles per insn
       940,421,180      branches                  # 1201.646 M/sec                  
         6,684,177      branch-misses             #    0.71% of all branches        

       0.784843205 seconds time elapsed


real	0m0.790s
user	0m0.676s
sys	0m0.112s

 Performance counter stats for './__run 4':

        791.129569      task-clock (msec)         #    0.997 CPUs utilized          
                65      context-switches          #    0.082 K/sec                  
                 0      cpu-migrations            #    0.000 K/sec                  
            36,992      page-faults               #    0.047 M/sec                  
     2,560,905,592      cycles                    #    3.237 GHz                    
       733,594,846      stalled-cycles-frontend   #   28.65% frontend cycles idle   
     4,713,970,374      instructions              #    1.84  insn per cycle         
                                                  #    0.16  stalled cycles per insn
       940,567,099      branches                  # 1188.891 M/sec                  
         6,676,587      branch-misses             #    0.71% of all branches        

       0.793658963 seconds time elapsed


real	0m0.776s
user	0m0.711s
sys	0m0.064s

 Performance counter stats for './__run 4':

        777.498615      task-clock (msec)         #    0.997 CPUs utilized          
                86      context-switches          #    0.111 K/sec                  
                 0      cpu-migrations            #    0.000 K/sec                  
            36,993      page-faults               #    0.048 M/sec                  
     2,512,175,398      cycles                    #    3.231 GHz                    
       692,737,645      stalled-cycles-frontend   #   27.58% frontend cycles idle   
     4,713,288,291      instructions              #    1.88  insn per cycle         
                                                  #    0.15  stalled cycles per insn
       940,303,605      branches                  # 1209.396 M/sec                  
         6,492,405      branch-misses             #    0.69% of all branches        

       0.779669653 seconds time elapsed


real	0m0.533s
user	0m0.464s
sys	0m0.068s

 Performance counter stats for './__run 5':

        534.451899      task-clock (msec)         #    0.996 CPUs utilized          
                59      context-switches          #    0.110 K/sec                  
                 1      cpu-migrations            #    0.002 K/sec                  
            24,747      page-faults               #    0.046 M/sec                  
     1,700,647,090      cycles                    #    3.182 GHz                    
       480,825,606      stalled-cycles-frontend   #   28.27% frontend cycles idle   
     3,143,971,972      instructions              #    1.85  insn per cycle         
                                                  #    0.15  stalled cycles per insn
       627,236,317      branches                  # 1173.607 M/sec                  
         4,389,944      branch-misses             #    0.70% of all branches        

       0.536373175 seconds time elapsed


real	0m0.527s
user	0m0.454s
sys	0m0.072s

 Performance counter stats for './__run 5':

        528.369426      task-clock (msec)         #    0.997 CPUs utilized          
                60      context-switches          #    0.114 K/sec                  
                 0      cpu-migrations            #    0.000 K/sec                  
            24,746      page-faults               #    0.047 M/sec                  
     1,683,377,001      cycles                    #    3.186 GHz                    
       468,508,461      stalled-cycles-frontend   #   27.83% frontend cycles idle   
     3,143,707,094      instructions              #    1.87  insn per cycle         
                                                  #    0.15  stalled cycles per insn
       627,145,064      branches                  # 1186.944 M/sec                  
         4,411,904      branch-misses             #    0.70% of all branches        

       0.530144660 seconds time elapsed


real	0m0.525s
user	0m0.448s
sys	0m0.076s

 Performance counter stats for './__run 5':

        526.316815      task-clock (msec)         #    0.997 CPUs utilized          
                60      context-switches          #    0.114 K/sec                  
                 0      cpu-migrations            #    0.000 K/sec                  
            24,748      page-faults               #    0.047 M/sec                  
     1,687,366,644      cycles                    #    3.206 GHz                    
       472,644,799      stalled-cycles-frontend   #   28.01% frontend cycles idle   
     3,144,498,416      instructions              #    1.86  insn per cycle         
                                                  #    0.15  stalled cycles per insn
       627,436,463      branches                  # 1192.127 M/sec                  
         4,426,208      branch-misses             #    0.71% of all branches        

       0.528017860 seconds time elapsed


real	0m0.269s
user	0m0.240s
sys	0m0.028s

 Performance counter stats for './__run 6':

        271.098890      task-clock (msec)         #    0.996 CPUs utilized          
                27      context-switches          #    0.100 K/sec                  
                 0      cpu-migrations            #    0.000 K/sec                  
            12,505      page-faults               #    0.046 M/sec                  
       856,068,607      cycles                    #    3.158 GHz                    
       246,149,088      stalled-cycles-frontend   #   28.75% frontend cycles idle   
     1,574,850,886      instructions              #    1.84  insn per cycle         
                                                  #    0.16  stalled cycles per insn
       314,204,882      branches                  # 1159.005 M/sec                  
         2,252,812      branch-misses             #    0.72% of all branches        

       0.272084605 seconds time elapsed


real	0m0.268s
user	0m0.232s
sys	0m0.036s

 Performance counter stats for './__run 6':

        270.631503      task-clock (msec)         #    0.997 CPUs utilized          
                21      context-switches          #    0.078 K/sec                  
                 0      cpu-migrations            #    0.000 K/sec                  
            12,502      page-faults               #    0.046 M/sec                  
       860,654,219      cycles                    #    3.180 GHz                    
       249,762,356      stalled-cycles-frontend   #   29.02% frontend cycles idle   
     1,574,652,906      instructions              #    1.83  insn per cycle         
                                                  #    0.16  stalled cycles per insn
       314,165,525      branches                  # 1160.861 M/sec                  
         2,235,674      branch-misses             #    0.71% of all branches        

       0.271522057 seconds time elapsed


real	0m0.272s
user	0m0.239s
sys	0m0.032s

 Performance counter stats for './__run 6':

        274.491423      task-clock (msec)         #    0.996 CPUs utilized          
                18      context-switches          #    0.066 K/sec                  
                 0      cpu-migrations            #    0.000 K/sec                  
            12,500      page-faults               #    0.046 M/sec                  
       859,429,311      cycles                    #    3.131 GHz                    
       251,697,786      stalled-cycles-frontend   #   29.29% frontend cycles idle   
     1,574,699,527      instructions              #    1.83  insn per cycle         
                                                  #    0.16  stalled cycles per insn
       314,199,802      branches                  # 1144.662 M/sec                  
         2,202,920      branch-misses             #    0.70% of all branches        

       0.275592104 seconds time elapsed


real	0m0.211s
user	0m0.178s
sys	0m0.032s

 Performance counter stats for './__run 7':

        213.571441      task-clock (msec)         #    0.995 CPUs utilized          
                35      context-switches          #    0.164 K/sec                  
                 0      cpu-migrations            #    0.000 K/sec                  
            10,048      page-faults               #    0.047 M/sec                  
       679,351,815      cycles                    #    3.181 GHz                    
       191,280,779      stalled-cycles-frontend   #   28.16% frontend cycles idle   
     1,261,183,861      instructions              #    1.86  insn per cycle         
                                                  #    0.15  stalled cycles per insn
       251,655,142      branches                  # 1178.318 M/sec                  
         1,853,160      branch-misses             #    0.74% of all branches        

       0.214705591 seconds time elapsed


real	0m0.215s
user	0m0.195s
sys	0m0.020s

 Performance counter stats for './__run 7':

        217.479055      task-clock (msec)         #    0.995 CPUs utilized          
                27      context-switches          #    0.124 K/sec                  
                 0      cpu-migrations            #    0.000 K/sec                  
            10,054      page-faults               #    0.046 M/sec                  
       681,432,993      cycles                    #    3.133 GHz                    
       193,715,758      stalled-cycles-frontend   #   28.43% frontend cycles idle   
     1,261,231,212      instructions              #    1.85  insn per cycle         
                                                  #    0.15  stalled cycles per insn
       251,684,114      branches                  # 1157.280 M/sec                  
         1,812,530      branch-misses             #    0.72% of all branches        

       0.218613926 seconds time elapsed


real	0m0.213s
user	0m0.154s
sys	0m0.059s

 Performance counter stats for './__run 7':

        215.405202      task-clock (msec)         #    0.995 CPUs utilized          
                25      context-switches          #    0.116 K/sec                  
                 0      cpu-migrations            #    0.000 K/sec                  
            10,049      page-faults               #    0.047 M/sec                  
       680,557,879      cycles                    #    3.159 GHz                    
       192,228,456      stalled-cycles-frontend   #   28.25% frontend cycles idle   
     1,261,106,918      instructions              #    1.85  insn per cycle         
                                                  #    0.15  stalled cycles per insn
       251,640,997      branches                  # 1168.222 M/sec                  
         1,823,504      branch-misses             #    0.72% of all branches        

       0.216429163 seconds time elapsed


real	0m0.116s
user	0m0.107s
sys	0m0.008s

 Performance counter stats for './__run 8':

        118.224499      task-clock (msec)         #    0.993 CPUs utilized          
                17      context-switches          #    0.144 K/sec                  
                 0      cpu-migrations            #    0.000 K/sec                  
             5,149      page-faults               #    0.044 M/sec                  
       347,315,937      cycles                    #    2.938 GHz                    
       101,442,490      stalled-cycles-frontend   #   29.21% frontend cycles idle   
       633,537,577      instructions              #    1.82  insn per cycle         
                                                  #    0.16  stalled cycles per insn
       126,410,908      branches                  # 1069.245 M/sec                  
           947,119      branch-misses             #    0.75% of all branches        

       0.119002595 seconds time elapsed


real	0m0.113s
user	0m0.105s
sys	0m0.008s

 Performance counter stats for './__run 8':

        115.914197      task-clock (msec)         #    0.995 CPUs utilized          
                11      context-switches          #    0.095 K/sec                  
                 0      cpu-migrations            #    0.000 K/sec                  
             5,152      page-faults               #    0.044 M/sec                  
       349,956,562      cycles                    #    3.019 GHz                    
       104,366,032      stalled-cycles-frontend   #   29.82% frontend cycles idle   
       633,364,517      instructions              #    1.81  insn per cycle         
                                                  #    0.16  stalled cycles per insn
       126,377,891      branches                  # 1090.271 M/sec                  
           957,710      branch-misses             #    0.76% of all branches        

       0.116471035 seconds time elapsed


real	0m0.113s
user	0m0.074s
sys	0m0.039s

 Performance counter stats for './__run 8':

        115.650484      task-clock (msec)         #    0.995 CPUs utilized          
                10      context-switches          #    0.086 K/sec                  
                 0      cpu-migrations            #    0.000 K/sec                  
             5,152      page-faults               #    0.045 M/sec                  
       350,666,855      cycles                    #    3.032 GHz                    
       104,893,786      stalled-cycles-frontend   #   29.91% frontend cycles idle   
       633,438,131      instructions              #    1.81  insn per cycle         
                                                  #    0.17  stalled cycles per insn
       126,391,823      branches                  # 1092.878 M/sec                  
           961,747      branch-misses             #    0.76% of all branches        

       0.116249846 seconds time elapsed


real	0m0.087s
user	0m0.063s
sys	0m0.024s

 Performance counter stats for './__run 9':

         90.131808      task-clock (msec)         #    0.995 CPUs utilized          
                 5      context-switches          #    0.055 K/sec                  
                 0      cpu-migrations            #    0.000 K/sec                  
             3,931      page-faults               #    0.044 M/sec                  
       262,415,870      cycles                    #    2.911 GHz                    
        77,982,335      stalled-cycles-frontend   #   29.72% frontend cycles idle   
       476,606,142      instructions              #    1.82  insn per cycle         
                                                  #    0.16  stalled cycles per insn
        95,108,686      branches                  # 1055.218 M/sec                  
           701,468      branch-misses             #    0.74% of all branches        

       0.090623593 seconds time elapsed


real	0m0.086s
user	0m0.078s
sys	0m0.008s

 Performance counter stats for './__run 9':

         88.517580      task-clock (msec)         #    0.992 CPUs utilized          
                15      context-switches          #    0.169 K/sec                  
                 0      cpu-migrations            #    0.000 K/sec                  
             3,926      page-faults               #    0.044 M/sec                  
       270,079,994      cycles                    #    3.051 GHz                    
        85,506,284      stalled-cycles-frontend   #   31.66% frontend cycles idle   
       476,818,787      instructions              #    1.77  insn per cycle         
                                                  #    0.18  stalled cycles per insn
        95,148,343      branches                  # 1074.909 M/sec                  
           717,055      branch-misses             #    0.75% of all branches        

       0.089254766 seconds time elapsed


real	0m0.087s
user	0m0.059s
sys	0m0.028s

 Performance counter stats for './__run 9':

         89.214820      task-clock (msec)         #    0.994 CPUs utilized          
                 6      context-switches          #    0.067 K/sec                  
                 0      cpu-migrations            #    0.000 K/sec                  
             3,925      page-faults               #    0.044 M/sec                  
       263,349,828      cycles                    #    2.952 GHz                    
        78,507,313      stalled-cycles-frontend   #   29.81% frontend cycles idle   
       476,655,901      instructions              #    1.81  insn per cycle         
                                                  #    0.16  stalled cycles per insn
        95,116,308      branches                  # 1066.149 M/sec                  
           713,010      branch-misses             #    0.75% of all branches        

       0.089759071 seconds time elapsed


real	0m0.061s
user	0m0.042s
sys	0m0.019s

 Performance counter stats for './__run 10':

         63.604345      task-clock (msec)         #    0.990 CPUs utilized          
                11      context-switches          #    0.173 K/sec                  
                 0      cpu-migrations            #    0.000 K/sec                  
             2,705      page-faults               #    0.043 M/sec                  
       184,167,295      cycles                    #    2.896 GHz                    
        59,922,330      stalled-cycles-frontend   #   32.54% frontend cycles idle   
       320,156,707      instructions              #    1.74  insn per cycle         
                                                  #    0.19  stalled cycles per insn
        63,908,472      branches                  # 1004.782 M/sec                  
           512,119      branch-misses             #    0.80% of all branches        

       0.064266149 seconds time elapsed


real	0m0.060s
user	0m0.040s
sys	0m0.020s

 Performance counter stats for './__run 10':

         63.049773      task-clock (msec)         #    0.992 CPUs utilized          
                 5      context-switches          #    0.079 K/sec                  
                 0      cpu-migrations            #    0.000 K/sec                  
             2,706      page-faults               #    0.043 M/sec                  
       179,251,228      cycles                    #    2.843 GHz                    
        55,135,271      stalled-cycles-frontend   #   30.76% frontend cycles idle   
       320,066,129      instructions              #    1.79  insn per cycle         
                                                  #    0.17  stalled cycles per insn
        63,880,033      branches                  # 1013.168 M/sec                  
           498,141      branch-misses             #    0.78% of all branches        

       0.063589872 seconds time elapsed


real	0m0.061s
user	0m0.048s
sys	0m0.012s

 Performance counter stats for './__run 10':

         63.171963      task-clock (msec)         #    0.990 CPUs utilized          
                10      context-switches          #    0.158 K/sec                  
                 0      cpu-migrations            #    0.000 K/sec                  
             2,702      page-faults               #    0.043 M/sec                  
       181,559,663      cycles                    #    2.874 GHz                    
        57,319,856      stalled-cycles-frontend   #   31.57% frontend cycles idle   
       320,148,499      instructions              #    1.76  insn per cycle         
                                                  #    0.18  stalled cycles per insn
        63,907,806      branches                  # 1011.648 M/sec                  
           509,528      branch-misses             #    0.80% of all branches        

       0.063786079 seconds time elapsed

