
real	0m21.032s
user	0m5.021s
sys	0m5.002s

 Performance counter stats for './__run 1':

       9660.934284      task-clock (msec)         #    0.459 CPUs utilized          
           130,015      context-switches          #    0.013 M/sec                  
               439      cpu-migrations            #    0.045 K/sec                  
               249      page-faults               #    0.026 K/sec                  
    30,534,378,954      cycles                    #    3.161 GHz                    
    14,320,379,560      stalled-cycles-frontend   #   46.90% frontend cycles idle   
    45,300,345,158      instructions              #    1.48  insn per cycle         
                                                  #    0.32  stalled cycles per insn
     4,491,333,634      branches                  #  464.896 M/sec                  
        27,427,370      branch-misses             #    0.61% of all branches        

      21.035557508 seconds time elapsed


real	0m21.133s
user	0m4.916s
sys	0m5.226s

 Performance counter stats for './__run 1':

       9758.477328      task-clock (msec)         #    0.462 CPUs utilized          
           129,986      context-switches          #    0.013 M/sec                  
               372      cpu-migrations            #    0.038 K/sec                  
               252      page-faults               #    0.026 K/sec                  
    30,423,499,822      cycles                    #    3.118 GHz                    
    14,238,994,307      stalled-cycles-frontend   #   46.80% frontend cycles idle   
    45,295,193,280      instructions              #    1.49  insn per cycle         
                                                  #    0.31  stalled cycles per insn
     4,490,538,895      branches                  #  460.168 M/sec                  
        26,528,054      branch-misses             #    0.59% of all branches        

      21.134949049 seconds time elapsed


real	0m21.435s
user	0m4.650s
sys	0m5.196s

 Performance counter stats for './__run 1':

       9478.702587      task-clock (msec)         #    0.442 CPUs utilized          
           129,983      context-switches          #    0.014 M/sec                  
               132      cpu-migrations            #    0.014 K/sec                  
               251      page-faults               #    0.026 K/sec                  
    30,146,519,305      cycles                    #    3.180 GHz                    
    13,964,051,125      stalled-cycles-frontend   #   46.32% frontend cycles idle   
    45,293,757,440      instructions              #    1.50  insn per cycle         
                                                  #    0.31  stalled cycles per insn
     4,490,266,782      branches                  #  473.722 M/sec                  
        25,840,543      branch-misses             #    0.58% of all branches        

      21.436897904 seconds time elapsed


real	0m1.517s
user	0m0.377s
sys	0m0.339s

 Performance counter stats for './__run 2':

        691.717762      task-clock (msec)         #    0.455 CPUs utilized          
             9,445      context-switches          #    0.014 M/sec                  
                13      cpu-migrations            #    0.019 K/sec                  
               251      page-faults               #    0.363 K/sec                  
     2,208,996,333      cycles                    #    3.193 GHz                    
     1,031,194,903      stalled-cycles-frontend   #   46.68% frontend cycles idle   
     3,294,665,541      instructions              #    1.49  insn per cycle         
                                                  #    0.31  stalled cycles per insn
       327,006,996      branches                  #  472.746 M/sec                  
         1,928,090      branch-misses             #    0.59% of all branches        

       1.519736508 seconds time elapsed


real	0m1.557s
user	0m0.376s
sys	0m0.349s

 Performance counter stats for './__run 2':

        700.827831      task-clock (msec)         #    0.449 CPUs utilized          
             9,449      context-switches          #    0.013 M/sec                  
                 9      cpu-migrations            #    0.013 K/sec                  
               251      page-faults               #    0.358 K/sec                  
     2,197,456,982      cycles                    #    3.136 GHz                    
     1,019,956,861      stalled-cycles-frontend   #   46.42% frontend cycles idle   
     3,295,274,286      instructions              #    1.50  insn per cycle         
                                                  #    0.31  stalled cycles per insn
       327,183,521      branches                  #  466.853 M/sec                  
         1,986,309      branch-misses             #    0.61% of all branches        

       1.560170875 seconds time elapsed


real	0m1.482s
user	0m0.341s
sys	0m0.386s

 Performance counter stats for './__run 2':

        702.506851      task-clock (msec)         #    0.473 CPUs utilized          
             9,453      context-switches          #    0.013 M/sec                  
                 9      cpu-migrations            #    0.013 K/sec                  
               248      page-faults               #    0.353 K/sec                  
     2,222,315,664      cycles                    #    3.163 GHz                    
     1,042,193,533      stalled-cycles-frontend   #   46.90% frontend cycles idle   
     3,295,837,158      instructions              #    1.48  insn per cycle         
                                                  #    0.32  stalled cycles per insn
       327,284,403      branches                  #  465.881 M/sec                  
         2,019,523      branch-misses             #    0.62% of all branches        

       1.484670166 seconds time elapsed


real	0m0.613s
user	0m0.134s
sys	0m0.171s

 Performance counter stats for './__run 3':

        295.195204      task-clock (msec)         #    0.480 CPUs utilized          
             3,945      context-switches          #    0.013 M/sec                  
                13      cpu-migrations            #    0.044 K/sec                  
               251      page-faults               #    0.850 K/sec                  
       934,242,391      cycles                    #    3.165 GHz                    
       440,540,161      stalled-cycles-frontend   #   47.15% frontend cycles idle   
     1,380,473,584      instructions              #    1.48  insn per cycle         
                                                  #    0.32  stalled cycles per insn
       137,387,206      branches                  #  465.411 M/sec                  
           854,802      branch-misses             #    0.62% of all branches        

       0.614527878 seconds time elapsed


real	0m0.639s
user	0m0.127s
sys	0m0.185s

 Performance counter stats for './__run 3':

        303.937999      task-clock (msec)         #    0.473 CPUs utilized          
             3,951      context-switches          #    0.013 M/sec                  
                21      cpu-migrations            #    0.069 K/sec                  
               254      page-faults               #    0.836 K/sec                  
       957,959,906      cycles                    #    3.152 GHz                    
       463,176,574      stalled-cycles-frontend   #   48.35% frontend cycles idle   
     1,380,406,086      instructions              #    1.44  insn per cycle         
                                                  #    0.34  stalled cycles per insn
       137,343,701      branches                  #  451.881 M/sec                  
           913,466      branch-misses             #    0.67% of all branches        

       0.642604172 seconds time elapsed


real	0m0.655s
user	0m0.163s
sys	0m0.147s

 Performance counter stats for './__run 3':

        300.959094      task-clock (msec)         #    0.458 CPUs utilized          
             3,945      context-switches          #    0.013 M/sec                  
                 9      cpu-migrations            #    0.030 K/sec                  
               248      page-faults               #    0.824 K/sec                  
       940,424,556      cycles                    #    3.125 GHz                    
       446,921,825      stalled-cycles-frontend   #   47.52% frontend cycles idle   
     1,380,259,200      instructions              #    1.47  insn per cycle         
                                                  #    0.32  stalled cycles per insn
       137,319,144      branches                  #  456.272 M/sec                  
           864,339      branch-misses             #    0.63% of all branches        

       0.657583976 seconds time elapsed


real	0m0.020s
user	0m0.003s
sys	0m0.008s

 Performance counter stats for './__run 4':

         13.652108      task-clock (msec)         #    0.593 CPUs utilized          
               126      context-switches          #    0.009 M/sec                  
                 1      cpu-migrations            #    0.073 K/sec                  
               251      page-faults               #    0.018 M/sec                  
        37,288,028      cycles                    #    2.731 GHz                    
        19,176,957      stalled-cycles-frontend   #   51.43% frontend cycles idle   
        49,180,735      instructions              #    1.32  insn per cycle         
                                                  #    0.39  stalled cycles per insn
         5,434,612      branches                  #  398.079 M/sec                  
            77,056      branch-misses             #    1.42% of all branches        

       0.023035184 seconds time elapsed


real	0m0.028s
user	0m0.006s
sys	0m0.009s

 Performance counter stats for './__run 4':

         17.316154      task-clock (msec)         #    0.563 CPUs utilized          
               136      context-switches          #    0.008 M/sec                  
                10      cpu-migrations            #    0.577 K/sec                  
               249      page-faults               #    0.014 M/sec                  
        48,570,338      cycles                    #    2.805 GHz                    
        29,846,957      stalled-cycles-frontend   #   61.45% frontend cycles idle   
        49,269,121      instructions              #    1.01  insn per cycle         
                                                  #    0.61  stalled cycles per insn
         5,450,418      branches                  #  314.759 M/sec                  
           131,566      branch-misses             #    2.41% of all branches        

       0.030756206 seconds time elapsed


real	0m0.035s
user	0m0.005s
sys	0m0.010s

 Performance counter stats for './__run 4':

         16.531449      task-clock (msec)         #    0.440 CPUs utilized          
               127      context-switches          #    0.008 M/sec                  
                 2      cpu-migrations            #    0.121 K/sec                  
               249      page-faults               #    0.015 M/sec                  
        38,186,237      cycles                    #    2.310 GHz                    
        19,985,453      stalled-cycles-frontend   #   52.34% frontend cycles idle   
        49,235,266      instructions              #    1.29  insn per cycle         
                                                  #    0.41  stalled cycles per insn
         5,443,524      branches                  #  329.283 M/sec                  
            81,532      branch-misses             #    1.50% of all branches        

       0.037564396 seconds time elapsed


real	0m0.390s
user	0m0.071s
sys	0m0.104s

 Performance counter stats for './__run 5':

        169.748572      task-clock (msec)         #    0.432 CPUs utilized          
             1,984      context-switches          #    0.012 M/sec                  
                14      cpu-migrations            #    0.082 K/sec                  
               254      page-faults               #    0.001 M/sec                  
       472,372,242      cycles                    #    2.783 GHz                    
       222,304,765      stalled-cycles-frontend   #   47.06% frontend cycles idle   
       697,694,781      instructions              #    1.48  insn per cycle         
                                                  #    0.32  stalled cycles per insn
        69,734,720      branches                  #  410.812 M/sec                  
           492,585      branch-misses             #    0.71% of all branches        

       0.393028011 seconds time elapsed


real	0m0.309s
user	0m0.078s
sys	0m0.075s

 Performance counter stats for './__run 5':

        150.211457      task-clock (msec)         #    0.482 CPUs utilized          
             1,989      context-switches          #    0.013 M/sec                  
                 1      cpu-migrations            #    0.007 K/sec                  
               252      page-faults               #    0.002 M/sec                  
       472,460,544      cycles                    #    3.145 GHz                    
       222,613,973      stalled-cycles-frontend   #   47.12% frontend cycles idle   
       697,831,750      instructions              #    1.48  insn per cycle         
                                                  #    0.32  stalled cycles per insn
        69,800,369      branches                  #  464.681 M/sec                  
           457,910      branch-misses             #    0.66% of all branches        

       0.311736123 seconds time elapsed


real	0m0.359s
user	0m0.075s
sys	0m0.137s

 Performance counter stats for './__run 5':

        199.768464      task-clock (msec)         #    0.552 CPUs utilized          
             1,985      context-switches          #    0.010 M/sec                  
                 4      cpu-migrations            #    0.020 K/sec                  
               253      page-faults               #    0.001 M/sec                  
       481,716,049      cycles                    #    2.411 GHz                    
       231,125,984      stalled-cycles-frontend   #   47.98% frontend cycles idle   
       698,102,512      instructions              #    1.45  insn per cycle         
                                                  #    0.33  stalled cycles per insn
        69,816,233      branches                  #  349.486 M/sec                  
           472,504      branch-misses             #    0.68% of all branches        

       0.361681729 seconds time elapsed


real	0m0.028s
user	0m0.004s
sys	0m0.014s

 Performance counter stats for './__run 6':

         19.810095      task-clock (msec)         #    0.634 CPUs utilized          
               142      context-switches          #    0.007 M/sec                  
                 4      cpu-migrations            #    0.202 K/sec                  
               249      page-faults               #    0.013 M/sec                  
        44,401,911      cycles                    #    2.241 GHz                    
        23,911,232      stalled-cycles-frontend   #   53.85% frontend cycles idle   
        55,265,948      instructions              #    1.24  insn per cycle         
                                                  #    0.43  stalled cycles per insn
         6,089,353      branches                  #  307.386 M/sec                  
            92,874      branch-misses             #    1.53% of all branches        

       0.031225291 seconds time elapsed


real	0m0.032s
user	0m0.007s
sys	0m0.014s

 Performance counter stats for './__run 6':

         23.130589      task-clock (msec)         #    0.665 CPUs utilized          
               142      context-switches          #    0.006 M/sec                  
                 2      cpu-migrations            #    0.086 K/sec                  
               252      page-faults               #    0.011 M/sec                  
        43,208,012      cycles                    #    1.868 GHz                    
        22,806,190      stalled-cycles-frontend   #   52.78% frontend cycles idle   
        55,204,873      instructions              #    1.28  insn per cycle         
                                                  #    0.41  stalled cycles per insn
         6,076,623      branches                  #  262.709 M/sec                  
            88,371      branch-misses             #    1.45% of all branches        

       0.034761999 seconds time elapsed


real	0m0.028s
user	0m0.004s
sys	0m0.013s

 Performance counter stats for './__run 6':

         19.747683      task-clock (msec)         #    0.627 CPUs utilized          
               147      context-switches          #    0.007 M/sec                  
                 1      cpu-migrations            #    0.051 K/sec                  
               255      page-faults               #    0.013 M/sec                  
        41,884,294      cycles                    #    2.121 GHz                    
        21,546,829      stalled-cycles-frontend   #   51.44% frontend cycles idle   
        55,258,766      instructions              #    1.32  insn per cycle         
                                                  #    0.39  stalled cycles per insn
         6,090,437      branches                  #  308.413 M/sec                  
            84,043      branch-misses             #    1.38% of all branches        

       0.031483416 seconds time elapsed


real	0m1.683s
user	0m0.369s
sys	0m0.483s

 Performance counter stats for './__run 7':

        816.002717      task-clock (msec)         #    0.484 CPUs utilized          
            10,088      context-switches          #    0.012 M/sec                  
                73      cpu-migrations            #    0.089 K/sec                  
               251      page-faults               #    0.308 K/sec                  
     2,427,980,859      cycles                    #    2.975 GHz                    
     1,166,314,758      stalled-cycles-frontend   #   48.04% frontend cycles idle   
     3,521,985,527      instructions              #    1.45  insn per cycle         
                                                  #    0.33  stalled cycles per insn
       349,792,341      branches                  #  428.666 M/sec                  
         2,305,654      branch-misses             #    0.66% of all branches        

       1.685892240 seconds time elapsed


real	0m1.529s
user	0m0.394s
sys	0m0.378s

 Performance counter stats for './__run 7':

        746.995164      task-clock (msec)         #    0.487 CPUs utilized          
            10,094      context-switches          #    0.014 M/sec                  
                 7      cpu-migrations            #    0.009 K/sec                  
               252      page-faults               #    0.337 K/sec                  
     2,369,462,525      cycles                    #    3.172 GHz                    
     1,110,620,427      stalled-cycles-frontend   #   46.87% frontend cycles idle   
     3,521,640,215      instructions              #    1.49  insn per cycle         
                                                  #    0.32  stalled cycles per insn
       349,684,002      branches                  #  468.121 M/sec                  
         2,085,107      branch-misses             #    0.60% of all branches        

       1.532841181 seconds time elapsed


real	0m1.662s
user	0m0.401s
sys	0m0.375s

 Performance counter stats for './__run 7':

        750.443807      task-clock (msec)         #    0.451 CPUs utilized          
            10,098      context-switches          #    0.013 M/sec                  
                23      cpu-migrations            #    0.031 K/sec                  
               252      page-faults               #    0.336 K/sec                  
     2,370,692,444      cycles                    #    3.159 GHz                    
     1,111,308,426      stalled-cycles-frontend   #   46.88% frontend cycles idle   
     3,522,208,760      instructions              #    1.49  insn per cycle         
                                                  #    0.32  stalled cycles per insn
       349,835,090      branches                  #  466.171 M/sec                  
         2,168,619      branch-misses             #    0.62% of all branches        

       1.665780521 seconds time elapsed


real	0m10.329s
user	0m2.288s
sys	0m2.497s

 Performance counter stats for './__run 8':

       4612.753457      task-clock (msec)         #    0.446 CPUs utilized          
            62,071      context-switches          #    0.013 M/sec                  
               119      cpu-migrations            #    0.026 K/sec                  
               252      page-faults               #    0.055 K/sec                  
    14,638,433,639      cycles                    #    3.173 GHz                    
     6,909,003,978      stalled-cycles-frontend   #   47.20% frontend cycles idle   
    21,614,821,604      instructions              #    1.48  insn per cycle         
                                                  #    0.32  stalled cycles per insn
     2,143,321,301      branches                  #  464.651 M/sec                  
        13,295,890      branch-misses             #    0.62% of all branches        

      10.331755108 seconds time elapsed


real	0m9.943s
user	0m2.371s
sys	0m2.468s

 Performance counter stats for './__run 8':

       4665.704234      task-clock (msec)         #    0.469 CPUs utilized          
            62,030      context-switches          #    0.013 M/sec                  
               167      cpu-migrations            #    0.036 K/sec                  
               251      page-faults               #    0.054 K/sec                  
    14,705,214,178      cycles                    #    3.152 GHz                    
     6,972,429,991      stalled-cycles-frontend   #   47.41% frontend cycles idle   
    21,613,386,481      instructions              #    1.47  insn per cycle         
                                                  #    0.32  stalled cycles per insn
     2,143,081,744      branches                  #  459.327 M/sec                  
        12,901,967      branch-misses             #    0.60% of all branches        

       9.945778165 seconds time elapsed


real	0m9.635s
user	0m2.215s
sys	0m2.475s

 Performance counter stats for './__run 8':

       4521.500257      task-clock (msec)         #    0.469 CPUs utilized          
            62,027      context-switches          #    0.014 M/sec                  
                44      cpu-migrations            #    0.010 K/sec                  
               252      page-faults               #    0.056 K/sec                  
    14,363,601,787      cycles                    #    3.177 GHz                    
     6,644,519,565      stalled-cycles-frontend   #   46.26% frontend cycles idle   
    21,611,381,871      instructions              #    1.50  insn per cycle         
                                                  #    0.31  stalled cycles per insn
     2,142,721,657      branches                  #  473.896 M/sec                  
        12,160,860      branch-misses             #    0.57% of all branches        

       9.638131771 seconds time elapsed


real	0m0.615s
user	0m0.099s
sys	0m0.202s

 Performance counter stats for './__run 9':

        293.555964      task-clock (msec)         #    0.475 CPUs utilized          
             3,962      context-switches          #    0.013 M/sec                  
                11      cpu-migrations            #    0.037 K/sec                  
               251      page-faults               #    0.855 K/sec                  
       926,989,681      cycles                    #    3.158 GHz                    
       431,449,237      stalled-cycles-frontend   #   46.54% frontend cycles idle   
     1,385,424,461      instructions              #    1.49  insn per cycle         
                                                  #    0.31  stalled cycles per insn
       138,037,480      branches                  #  470.225 M/sec                  
           847,416      branch-misses             #    0.61% of all branches        

       0.618348037 seconds time elapsed


real	0m0.630s
user	0m0.160s
sys	0m0.149s

 Performance counter stats for './__run 9':

        300.562512      task-clock (msec)         #    0.475 CPUs utilized          
             3,960      context-switches          #    0.013 M/sec                  
                13      cpu-migrations            #    0.043 K/sec                  
               250      page-faults               #    0.832 K/sec                  
       924,973,867      cycles                    #    3.077 GHz                    
       429,612,096      stalled-cycles-frontend   #   46.45% frontend cycles idle   
     1,385,100,453      instructions              #    1.50  insn per cycle         
                                                  #    0.31  stalled cycles per insn
       137,969,100      branches                  #  459.036 M/sec                  
           860,373      branch-misses             #    0.62% of all branches        

       0.633280214 seconds time elapsed


real	0m0.593s
user	0m0.141s
sys	0m0.158s

 Performance counter stats for './__run 9':

        291.157079      task-clock (msec)         #    0.488 CPUs utilized          
             3,956      context-switches          #    0.014 M/sec                  
                 3      cpu-migrations            #    0.010 K/sec                  
               254      page-faults               #    0.872 K/sec                  
       923,415,806      cycles                    #    3.172 GHz                    
       427,747,368      stalled-cycles-frontend   #   46.32% frontend cycles idle   
     1,384,931,112      instructions              #    1.50  insn per cycle         
                                                  #    0.31  stalled cycles per insn
       137,941,104      branches                  #  473.769 M/sec                  
           856,028      branch-misses             #    0.62% of all branches        

       0.596836539 seconds time elapsed


real	0m2.163s
user	0m0.496s
sys	0m0.555s

 Performance counter stats for './__run 10':

       1014.641868      task-clock (msec)         #    0.468 CPUs utilized          
            13,935      context-switches          #    0.014 M/sec                  
                 9      cpu-migrations            #    0.009 K/sec                  
               252      page-faults               #    0.248 K/sec                  
     3,235,378,590      cycles                    #    3.189 GHz                    
     1,497,242,470      stalled-cycles-frontend   #   46.28% frontend cycles idle   
     4,860,936,374      instructions              #    1.50  insn per cycle         
                                                  #    0.31  stalled cycles per insn
       482,393,763      branches                  #  475.433 M/sec                  
         2,906,557      branch-misses             #    0.60% of all branches        

       2.166506276 seconds time elapsed


real	0m2.151s
user	0m0.535s
sys	0m0.515s

 Performance counter stats for './__run 10':

       1015.109716      task-clock (msec)         #    0.471 CPUs utilized          
            13,928      context-switches          #    0.014 M/sec                  
                 7      cpu-migrations            #    0.007 K/sec                  
               252      page-faults               #    0.248 K/sec                  
     3,236,310,923      cycles                    #    3.188 GHz                    
     1,498,653,761      stalled-cycles-frontend   #   46.31% frontend cycles idle   
     4,861,882,817      instructions              #    1.50  insn per cycle         
                                                  #    0.31  stalled cycles per insn
       482,729,685      branches                  #  475.544 M/sec                  
         2,906,686      branch-misses             #    0.60% of all branches        

       2.154401168 seconds time elapsed


real	0m2.118s
user	0m0.516s
sys	0m0.548s

 Performance counter stats for './__run 10':

       1028.258510      task-clock (msec)         #    0.485 CPUs utilized          
            13,935      context-switches          #    0.014 M/sec                  
                18      cpu-migrations            #    0.018 K/sec                  
               249      page-faults               #    0.242 K/sec                  
     3,269,246,303      cycles                    #    3.179 GHz                    
     1,531,659,244      stalled-cycles-frontend   #   46.85% frontend cycles idle   
     4,860,923,136      instructions              #    1.49  insn per cycle         
                                                  #    0.32  stalled cycles per insn
       482,433,391      branches                  #  469.175 M/sec                  
         2,902,931      branch-misses             #    0.60% of all branches        

       2.121356456 seconds time elapsed

