tmp_bat: line 1: 12525 Segmentation fault      (core dumped) ./a.out -sDEVICE=ppm -dNOPAUSE -q -sOutputFile=output.ppm -- ../../office_data/1.ps > ftmp_out

real	0m0.152s
user	0m0.011s
sys	0m0.010s

 Performance counter stats for './__run 1':

         23.818820      task-clock (msec)         #    0.153 CPUs utilized          
                 8      context-switches          #    0.336 K/sec                  
                 2      cpu-migrations            #    0.084 K/sec                  
               875      page-faults               #    0.037 M/sec                  
        40,402,997      cycles                    #    1.696 GHz                    
        24,205,127      stalled-cycles-frontend   #   59.91% frontend cycles idle   
        35,455,903      instructions              #    0.88  insn per cycle         
                                                  #    0.68  stalled cycles per insn
         8,043,838      branches                  #  337.709 M/sec                  
           386,378      branch-misses             #    4.80% of all branches        

       0.155352210 seconds time elapsed

tmp_bat: line 1: 12532 Segmentation fault      (core dumped) ./a.out -sDEVICE=ppm -dNOPAUSE -q -sOutputFile=output.ppm -- ../../office_data/1.ps > ftmp_out

real	0m0.144s
user	0m0.010s
sys	0m0.005s

 Performance counter stats for './__run 1':

         17.228822      task-clock (msec)         #    0.117 CPUs utilized          
                 3      context-switches          #    0.174 K/sec                  
                 2      cpu-migrations            #    0.116 K/sec                  
               874      page-faults               #    0.051 M/sec                  
        35,402,478      cycles                    #    2.055 GHz                    
        19,028,833      stalled-cycles-frontend   #   53.75% frontend cycles idle   
        35,350,118      instructions              #    1.00  insn per cycle         
                                                  #    0.54  stalled cycles per insn
         8,026,343      branches                  #  465.867 M/sec                  
           380,847      branch-misses             #    4.74% of all branches        

       0.147195328 seconds time elapsed

tmp_bat: line 1: 12539 Segmentation fault      (core dumped) ./a.out -sDEVICE=ppm -dNOPAUSE -q -sOutputFile=output.ppm -- ../../office_data/1.ps > ftmp_out

real	0m0.150s
user	0m0.013s
sys	0m0.005s

 Performance counter stats for './__run 1':

         20.401420      task-clock (msec)         #    0.133 CPUs utilized          
                 3      context-switches          #    0.147 K/sec                  
                 2      cpu-migrations            #    0.098 K/sec                  
               878      page-faults               #    0.043 M/sec                  
        37,987,832      cycles                    #    1.862 GHz                    
        21,813,101      stalled-cycles-frontend   #   57.42% frontend cycles idle   
        35,343,714      instructions              #    0.93  insn per cycle         
                                                  #    0.62  stalled cycles per insn
         8,025,845      branches                  #  393.396 M/sec                  
           381,897      branch-misses             #    4.76% of all branches        

       0.153173416 seconds time elapsed

tmp_bat: line 1: 12546 Segmentation fault      (core dumped) ./a.out -sDEVICE=ppm -dNOPAUSE -q -sOutputFile=output.ppm -- ../../office_data/2.ps > ftmp_out

real	0m0.147s
user	0m0.016s
sys	0m0.000s

 Performance counter stats for './__run 2':

         17.958720      task-clock (msec)         #    0.120 CPUs utilized          
                 5      context-switches          #    0.278 K/sec                  
                 3      cpu-migrations            #    0.167 K/sec                  
               877      page-faults               #    0.049 M/sec                  
        36,208,783      cycles                    #    2.016 GHz                    
        19,756,881      stalled-cycles-frontend   #   54.56% frontend cycles idle   
        35,506,832      instructions              #    0.98  insn per cycle         
                                                  #    0.56  stalled cycles per insn
         8,062,686      branches                  #  448.957 M/sec                  
           379,508      branch-misses             #    4.71% of all branches        

       0.149739859 seconds time elapsed

tmp_bat: line 1: 12553 Segmentation fault      (core dumped) ./a.out -sDEVICE=ppm -dNOPAUSE -q -sOutputFile=output.ppm -- ../../office_data/2.ps > ftmp_out

real	0m0.146s
user	0m0.010s
sys	0m0.004s

 Performance counter stats for './__run 2':

         16.210087      task-clock (msec)         #    0.109 CPUs utilized          
                 4      context-switches          #    0.247 K/sec                  
                 2      cpu-migrations            #    0.123 K/sec                  
               879      page-faults               #    0.054 M/sec                  
        35,160,952      cycles                    #    2.169 GHz                    
        18,712,550      stalled-cycles-frontend   #   53.22% frontend cycles idle   
        35,621,239      instructions              #    1.01  insn per cycle         
                                                  #    0.53  stalled cycles per insn
         8,081,491      branches                  #  498.547 M/sec                  
           381,838      branch-misses             #    4.72% of all branches        

       0.148699954 seconds time elapsed

tmp_bat: line 1: 12560 Segmentation fault      (core dumped) ./a.out -sDEVICE=ppm -dNOPAUSE -q -sOutputFile=output.ppm -- ../../office_data/2.ps > ftmp_out

real	0m0.148s
user	0m0.014s
sys	0m0.000s

 Performance counter stats for './__run 2':

         16.385628      task-clock (msec)         #    0.109 CPUs utilized          
                 4      context-switches          #    0.244 K/sec                  
                 2      cpu-migrations            #    0.122 K/sec                  
               881      page-faults               #    0.054 M/sec                  
        34,767,310      cycles                    #    2.122 GHz                    
        18,233,701      stalled-cycles-frontend   #   52.44% frontend cycles idle   
        35,555,121      instructions              #    1.02  insn per cycle         
                                                  #    0.51  stalled cycles per insn
         8,070,394      branches                  #  492.529 M/sec                  
           381,097      branch-misses             #    4.72% of all branches        

       0.150375626 seconds time elapsed

tmp_bat: line 1: 12567 Segmentation fault      (core dumped) ./a.out -sDEVICE=ppm -dNOPAUSE -q -sOutputFile=output.ppm -- ../../office_data/3.ps > ftmp_out

real	0m0.143s
user	0m0.013s
sys	0m0.000s

 Performance counter stats for './__run 3':

         15.289141      task-clock (msec)         #    0.105 CPUs utilized          
                 4      context-switches          #    0.262 K/sec                  
                 3      cpu-migrations            #    0.196 K/sec                  
               876      page-faults               #    0.057 M/sec                  
        34,794,951      cycles                    #    2.276 GHz                    
        18,365,573      stalled-cycles-frontend   #   52.78% frontend cycles idle   
        35,743,843      instructions              #    1.03  insn per cycle         
                                                  #    0.51  stalled cycles per insn
         8,109,928      branches                  #  530.437 M/sec                  
           378,143      branch-misses             #    4.66% of all branches        

       0.146196882 seconds time elapsed

tmp_bat: line 1: 12574 Segmentation fault      (core dumped) ./a.out -sDEVICE=ppm -dNOPAUSE -q -sOutputFile=output.ppm -- ../../office_data/3.ps > ftmp_out

real	0m0.143s
user	0m0.013s
sys	0m0.000s

 Performance counter stats for './__run 3':

         15.098392      task-clock (msec)         #    0.104 CPUs utilized          
                 4      context-switches          #    0.265 K/sec                  
                 1      cpu-migrations            #    0.066 K/sec                  
               877      page-faults               #    0.058 M/sec                  
        33,665,823      cycles                    #    2.230 GHz                    
        17,086,263      stalled-cycles-frontend   #   50.75% frontend cycles idle   
        35,707,518      instructions              #    1.06  insn per cycle         
                                                  #    0.48  stalled cycles per insn
         8,102,501      branches                  #  536.647 M/sec                  
           379,087      branch-misses             #    4.68% of all branches        

       0.145150298 seconds time elapsed

tmp_bat: line 1: 12581 Segmentation fault      (core dumped) ./a.out -sDEVICE=ppm -dNOPAUSE -q -sOutputFile=output.ppm -- ../../office_data/3.ps > ftmp_out

real	0m0.145s
user	0m0.014s
sys	0m0.000s

 Performance counter stats for './__run 3':

         16.500894      task-clock (msec)         #    0.111 CPUs utilized          
                 3      context-switches          #    0.182 K/sec                  
                 2      cpu-migrations            #    0.121 K/sec                  
               877      page-faults               #    0.053 M/sec                  
        35,090,185      cycles                    #    2.127 GHz                    
        18,594,551      stalled-cycles-frontend   #   52.99% frontend cycles idle   
        35,736,445      instructions              #    1.02  insn per cycle         
                                                  #    0.52  stalled cycles per insn
         8,108,278      branches                  #  491.384 M/sec                  
           382,955      branch-misses             #    4.72% of all branches        

       0.148076327 seconds time elapsed

tmp_bat: line 1: 12588 Segmentation fault      (core dumped) ./a.out -sDEVICE=ppm -dNOPAUSE -q -sOutputFile=output.ppm -- ../../office_data/4.ps > ftmp_out

real	0m0.144s
user	0m0.011s
sys	0m0.005s

 Performance counter stats for './__run 4':

         17.967350      task-clock (msec)         #    0.122 CPUs utilized          
                 5      context-switches          #    0.278 K/sec                  
                 3      cpu-migrations            #    0.167 K/sec                  
               878      page-faults               #    0.049 M/sec                  
        37,413,073      cycles                    #    2.082 GHz                    
        20,942,415      stalled-cycles-frontend   #   55.98% frontend cycles idle   
        35,903,482      instructions              #    0.96  insn per cycle         
                                                  #    0.58  stalled cycles per insn
         8,143,790      branches                  #  453.255 M/sec                  
           383,178      branch-misses             #    4.71% of all branches        

       0.147071869 seconds time elapsed

tmp_bat: line 1: 12595 Segmentation fault      (core dumped) ./a.out -sDEVICE=ppm -dNOPAUSE -q -sOutputFile=output.ppm -- ../../office_data/4.ps > ftmp_out

real	0m0.144s
user	0m0.010s
sys	0m0.005s

 Performance counter stats for './__run 4':

         17.296934      task-clock (msec)         #    0.118 CPUs utilized          
                 5      context-switches          #    0.289 K/sec                  
                 1      cpu-migrations            #    0.058 K/sec                  
               880      page-faults               #    0.051 M/sec                  
        36,338,174      cycles                    #    2.101 GHz                    
        19,884,907      stalled-cycles-frontend   #   54.72% frontend cycles idle   
        35,937,640      instructions              #    0.99  insn per cycle         
                                                  #    0.55  stalled cycles per insn
         8,150,496      branches                  #  471.210 M/sec                  
           382,700      branch-misses             #    4.70% of all branches        

       0.146520808 seconds time elapsed

tmp_bat: line 1: 12602 Segmentation fault      (core dumped) ./a.out -sDEVICE=ppm -dNOPAUSE -q -sOutputFile=output.ppm -- ../../office_data/4.ps > ftmp_out

real	0m0.147s
user	0m0.014s
sys	0m0.001s

 Performance counter stats for './__run 4':

         17.281921      task-clock (msec)         #    0.115 CPUs utilized          
                 5      context-switches          #    0.289 K/sec                  
                 1      cpu-migrations            #    0.058 K/sec                  
               878      page-faults               #    0.051 M/sec                  
        37,525,168      cycles                    #    2.171 GHz                    
        21,151,711      stalled-cycles-frontend   #   56.37% frontend cycles idle   
        35,903,065      instructions              #    0.96  insn per cycle         
                                                  #    0.59  stalled cycles per insn
         8,144,093      branches                  #  471.249 M/sec                  
           384,676      branch-misses             #    4.72% of all branches        

       0.150004113 seconds time elapsed

tmp_bat: line 1: 12609 Segmentation fault      (core dumped) ./a.out -sDEVICE=ppm -dNOPAUSE -q -sOutputFile=output.ppm -- ../../office_data/5.ps > ftmp_out

real	0m0.146s
user	0m0.016s
sys	0m0.000s

 Performance counter stats for './__run 5':

         18.499138      task-clock (msec)         #    0.124 CPUs utilized          
                 5      context-switches          #    0.270 K/sec                  
                 1      cpu-migrations            #    0.054 K/sec                  
               879      page-faults               #    0.048 M/sec                  
        35,945,949      cycles                    #    1.943 GHz                    
        19,286,626      stalled-cycles-frontend   #   53.65% frontend cycles idle   
        36,123,997      instructions              #    1.00  insn per cycle         
                                                  #    0.53  stalled cycles per insn
         8,191,061      branches                  #  442.781 M/sec                  
           384,938      branch-misses             #    4.70% of all branches        

       0.149286981 seconds time elapsed

tmp_bat: line 1: 12616 Segmentation fault      (core dumped) ./a.out -sDEVICE=ppm -dNOPAUSE -q -sOutputFile=output.ppm -- ../../office_data/5.ps > ftmp_out

real	0m0.147s
user	0m0.012s
sys	0m0.004s

 Performance counter stats for './__run 5':

         18.287845      task-clock (msec)         #    0.122 CPUs utilized          
                 6      context-switches          #    0.328 K/sec                  
                 1      cpu-migrations            #    0.055 K/sec                  
               876      page-faults               #    0.048 M/sec                  
        36,976,590      cycles                    #    2.022 GHz                    
        20,542,715      stalled-cycles-frontend   #   55.56% frontend cycles idle   
        36,033,269      instructions              #    0.97  insn per cycle         
                                                  #    0.57  stalled cycles per insn
         8,173,822      branches                  #  446.954 M/sec                  
           383,175      branch-misses             #    4.69% of all branches        

       0.149969149 seconds time elapsed

tmp_bat: line 1: 12623 Segmentation fault      (core dumped) ./a.out -sDEVICE=ppm -dNOPAUSE -q -sOutputFile=output.ppm -- ../../office_data/5.ps > ftmp_out

real	0m0.151s
user	0m0.018s
sys	0m0.000s

 Performance counter stats for './__run 5':

         21.140998      task-clock (msec)         #    0.137 CPUs utilized          
                 8      context-switches          #    0.378 K/sec                  
                 1      cpu-migrations            #    0.047 K/sec                  
               879      page-faults               #    0.042 M/sec                  
        38,620,430      cycles                    #    1.827 GHz                    
        21,868,783      stalled-cycles-frontend   #   56.62% frontend cycles idle   
        36,107,724      instructions              #    0.93  insn per cycle         
                                                  #    0.61  stalled cycles per insn
         8,187,991      branches                  #  387.304 M/sec                  
           383,209      branch-misses             #    4.68% of all branches        

       0.154361654 seconds time elapsed

tmp_bat: line 1: 12630 Segmentation fault      (core dumped) ./a.out -sDEVICE=ppm -dNOPAUSE -q -sOutputFile=output.ppm -- ../../office_data/6.ps > ftmp_out

real	0m0.147s
user	0m0.011s
sys	0m0.007s

 Performance counter stats for './__run 6':

         19.758488      task-clock (msec)         #    0.132 CPUs utilized          
                 5      context-switches          #    0.253 K/sec                  
                 1      cpu-migrations            #    0.051 K/sec                  
               877      page-faults               #    0.044 M/sec                  
        37,292,094      cycles                    #    1.887 GHz                    
        20,803,859      stalled-cycles-frontend   #   55.79% frontend cycles idle   
        36,228,687      instructions              #    0.97  insn per cycle         
                                                  #    0.57  stalled cycles per insn
         8,215,406      branches                  #  415.791 M/sec                  
           383,988      branch-misses             #    4.67% of all branches        

       0.149776098 seconds time elapsed

tmp_bat: line 1: 12637 Segmentation fault      (core dumped) ./a.out -sDEVICE=ppm -dNOPAUSE -q -sOutputFile=output.ppm -- ../../office_data/6.ps > ftmp_out

real	0m0.151s
user	0m0.013s
sys	0m0.004s

 Performance counter stats for './__run 6':

         20.753385      task-clock (msec)         #    0.134 CPUs utilized          
                 4      context-switches          #    0.193 K/sec                  
                 3      cpu-migrations            #    0.145 K/sec                  
               882      page-faults               #    0.042 M/sec                  
        40,036,976      cycles                    #    1.929 GHz                    
        23,386,221      stalled-cycles-frontend   #   58.41% frontend cycles idle   
        36,285,613      instructions              #    0.91  insn per cycle         
                                                  #    0.64  stalled cycles per insn
         8,225,129      branches                  #  396.327 M/sec                  
           383,657      branch-misses             #    4.66% of all branches        

       0.154813603 seconds time elapsed

tmp_bat: line 1: 12644 Segmentation fault      (core dumped) ./a.out -sDEVICE=ppm -dNOPAUSE -q -sOutputFile=output.ppm -- ../../office_data/6.ps > ftmp_out

real	0m0.143s
user	0m0.009s
sys	0m0.005s

 Performance counter stats for './__run 6':

         17.239472      task-clock (msec)         #    0.118 CPUs utilized          
                 3      context-switches          #    0.174 K/sec                  
                 2      cpu-migrations            #    0.116 K/sec                  
               881      page-faults               #    0.051 M/sec                  
        35,102,064      cycles                    #    2.036 GHz                    
        18,284,780      stalled-cycles-frontend   #   52.09% frontend cycles idle   
        36,242,647      instructions              #    1.03  insn per cycle         
                                                  #    0.50  stalled cycles per insn
         8,216,897      branches                  #  476.633 M/sec                  
           382,206      branch-misses             #    4.65% of all branches        

       0.145949947 seconds time elapsed

tmp_bat: line 1: 12651 Segmentation fault      (core dumped) ./a.out -sDEVICE=ppm -dNOPAUSE -q -sOutputFile=output.ppm -- ../../office_data/7.ps > ftmp_out

real	0m0.145s
user	0m0.013s
sys	0m0.004s

 Performance counter stats for './__run 7':

         20.200443      task-clock (msec)         #    0.136 CPUs utilized          
                 4      context-switches          #    0.198 K/sec                  
                 2      cpu-migrations            #    0.099 K/sec                  
               883      page-faults               #    0.044 M/sec                  
        35,794,448      cycles                    #    1.772 GHz                    
        18,966,747      stalled-cycles-frontend   #   52.99% frontend cycles idle   
        36,434,793      instructions              #    1.02  insn per cycle         
                                                  #    0.52  stalled cycles per insn
         8,256,695      branches                  #  408.738 M/sec                  
           382,719      branch-misses             #    4.64% of all branches        

       0.148341944 seconds time elapsed

tmp_bat: line 1: 12658 Segmentation fault      (core dumped) ./a.out -sDEVICE=ppm -dNOPAUSE -q -sOutputFile=output.ppm -- ../../office_data/7.ps > ftmp_out

real	0m0.148s
user	0m0.010s
sys	0m0.005s

 Performance counter stats for './__run 7':

         16.983453      task-clock (msec)         #    0.112 CPUs utilized          
                 3      context-switches          #    0.177 K/sec                  
                 2      cpu-migrations            #    0.118 K/sec                  
               882      page-faults               #    0.052 M/sec                  
        36,486,039      cycles                    #    2.148 GHz                    
        19,583,404      stalled-cycles-frontend   #   53.67% frontend cycles idle   
        36,473,578      instructions              #    1.00  insn per cycle         
                                                  #    0.54  stalled cycles per insn
         8,264,096      branches                  #  486.597 M/sec                  
           385,986      branch-misses             #    4.67% of all branches        

       0.151162153 seconds time elapsed

tmp_bat: line 1: 12665 Segmentation fault      (core dumped) ./a.out -sDEVICE=ppm -dNOPAUSE -q -sOutputFile=output.ppm -- ../../office_data/7.ps > ftmp_out

real	0m0.156s
user	0m0.018s
sys	0m0.000s

 Performance counter stats for './__run 7':

         20.683687      task-clock (msec)         #    0.130 CPUs utilized          
                 3      context-switches          #    0.145 K/sec                  
                 1      cpu-migrations            #    0.048 K/sec                  
               878      page-faults               #    0.042 M/sec                  
        36,264,469      cycles                    #    1.753 GHz                    
        19,587,432      stalled-cycles-frontend   #   54.01% frontend cycles idle   
        36,430,576      instructions              #    1.00  insn per cycle         
                                                  #    0.54  stalled cycles per insn
         8,256,384      branches                  #  399.174 M/sec                  
           384,043      branch-misses             #    4.65% of all branches        

       0.159393559 seconds time elapsed

tmp_bat: line 1: 12672 Segmentation fault      (core dumped) ./a.out -sDEVICE=ppm -dNOPAUSE -q -sOutputFile=output.ppm -- ../../office_data/8.ps > ftmp_out

real	0m0.166s
user	0m0.018s
sys	0m0.000s

 Performance counter stats for './__run 8':

         20.933978      task-clock (msec)         #    0.123 CPUs utilized          
                 4      context-switches          #    0.191 K/sec                  
                 3      cpu-migrations            #    0.143 K/sec                  
               879      page-faults               #    0.042 M/sec                  
        36,815,085      cycles                    #    1.759 GHz                    
        19,906,898      stalled-cycles-frontend   #   54.07% frontend cycles idle   
        36,582,837      instructions              #    0.99  insn per cycle         
                                                  #    0.54  stalled cycles per insn
         8,290,761      branches                  #  396.043 M/sec                  
           385,434      branch-misses             #    4.65% of all branches        

       0.169949788 seconds time elapsed

tmp_bat: line 1: 12679 Segmentation fault      (core dumped) ./a.out -sDEVICE=ppm -dNOPAUSE -q -sOutputFile=output.ppm -- ../../office_data/8.ps > ftmp_out

real	0m0.161s
user	0m0.016s
sys	0m0.004s

 Performance counter stats for './__run 8':

         22.150790      task-clock (msec)         #    0.135 CPUs utilized          
                 4      context-switches          #    0.181 K/sec                  
                 2      cpu-migrations            #    0.090 K/sec                  
               879      page-faults               #    0.040 M/sec                  
        42,704,159      cycles                    #    1.928 GHz                    
        25,349,277      stalled-cycles-frontend   #   59.36% frontend cycles idle   
        37,135,960      instructions              #    0.87  insn per cycle         
                                                  #    0.68  stalled cycles per insn
         8,386,400      branches                  #  378.605 M/sec                  
           387,246      branch-misses             #    4.62% of all branches        

       0.164567666 seconds time elapsed

tmp_bat: line 1: 12686 Segmentation fault      (core dumped) ./a.out -sDEVICE=ppm -dNOPAUSE -q -sOutputFile=output.ppm -- ../../office_data/8.ps > ftmp_out

real	0m0.148s
user	0m0.016s
sys	0m0.000s

 Performance counter stats for './__run 8':

         18.876031      task-clock (msec)         #    0.125 CPUs utilized          
                 4      context-switches          #    0.212 K/sec                  
                 1      cpu-migrations            #    0.053 K/sec                  
               875      page-faults               #    0.046 M/sec                  
        37,914,726      cycles                    #    2.009 GHz                    
        21,254,891      stalled-cycles-frontend   #   56.06% frontend cycles idle   
        36,640,855      instructions              #    0.97  insn per cycle         
                                                  #    0.58  stalled cycles per insn
         8,299,146      branches                  #  439.666 M/sec                  
           383,081      branch-misses             #    4.62% of all branches        

       0.151046643 seconds time elapsed

tmp_bat: line 1: 12695 Segmentation fault      (core dumped) ./a.out -sDEVICE=ppm -dNOPAUSE -q -sOutputFile=output.ppm -- ../../office_data/9.ps > ftmp_out

real	0m0.149s
user	0m0.011s
sys	0m0.000s

 Performance counter stats for './__run 9':

         14.386443      task-clock (msec)         #    0.094 CPUs utilized          
                 8      context-switches          #    0.556 K/sec                  
                 3      cpu-migrations            #    0.209 K/sec                  
               875      page-faults               #    0.061 M/sec                  
        41,774,318      cycles                    #    2.904 GHz                    
        25,005,888      stalled-cycles-frontend   #   59.86% frontend cycles idle   
        36,756,106      instructions              #    0.88  insn per cycle         
                                                  #    0.68  stalled cycles per insn
         8,327,855      branches                  #  578.868 M/sec                  
           393,374      branch-misses             #    4.72% of all branches        

       0.152660838 seconds time elapsed

tmp_bat: line 1: 12704 Segmentation fault      (core dumped) ./a.out -sDEVICE=ppm -dNOPAUSE -q -sOutputFile=output.ppm -- ../../office_data/9.ps > ftmp_out

real	0m0.149s
user	0m0.012s
sys	0m0.004s

 Performance counter stats for './__run 9':

         19.173049      task-clock (msec)         #    0.126 CPUs utilized          
                 4      context-switches          #    0.209 K/sec                  
                 2      cpu-migrations            #    0.104 K/sec                  
               879      page-faults               #    0.046 M/sec                  
        37,554,421      cycles                    #    1.959 GHz                    
        20,712,936      stalled-cycles-frontend   #   55.15% frontend cycles idle   
        36,767,895      instructions              #    0.98  insn per cycle         
                                                  #    0.56  stalled cycles per insn
         8,329,627      branches                  #  434.445 M/sec                  
           383,958      branch-misses             #    4.61% of all branches        

       0.152732450 seconds time elapsed

tmp_bat: line 1: 12711 Segmentation fault      (core dumped) ./a.out -sDEVICE=ppm -dNOPAUSE -q -sOutputFile=output.ppm -- ../../office_data/9.ps > ftmp_out

real	0m0.148s
user	0m0.017s
sys	0m0.001s

 Performance counter stats for './__run 9':

         20.930147      task-clock (msec)         #    0.138 CPUs utilized          
                 3      context-switches          #    0.143 K/sec                  
                 2      cpu-migrations            #    0.096 K/sec                  
               882      page-faults               #    0.042 M/sec                  
        36,599,225      cycles                    #    1.749 GHz                    
        19,759,506      stalled-cycles-frontend   #   53.99% frontend cycles idle   
        36,773,227      instructions              #    1.00  insn per cycle         
                                                  #    0.54  stalled cycles per insn
         8,331,130      branches                  #  398.045 M/sec                  
           385,313      branch-misses             #    4.62% of all branches        

       0.151436037 seconds time elapsed

tmp_bat: line 1: 12718 Segmentation fault      (core dumped) ./a.out -sDEVICE=ppm -dNOPAUSE -q -sOutputFile=output.ppm -- ../../office_data/10.ps > ftmp_out

real	0m0.145s
user	0m0.014s
sys	0m0.000s

 Performance counter stats for './__run 10':

         16.657340      task-clock (msec)         #    0.112 CPUs utilized          
                 3      context-switches          #    0.180 K/sec                  
                 2      cpu-migrations            #    0.120 K/sec                  
               881      page-faults               #    0.053 M/sec                  
        35,391,532      cycles                    #    2.125 GHz                    
        18,359,108      stalled-cycles-frontend   #   51.87% frontend cycles idle   
        36,916,709      instructions              #    1.04  insn per cycle         
                                                  #    0.50  stalled cycles per insn
         8,363,390      branches                  #  502.084 M/sec                  
           386,255      branch-misses             #    4.62% of all branches        

       0.148159847 seconds time elapsed

tmp_bat: line 1: 12725 Segmentation fault      (core dumped) ./a.out -sDEVICE=ppm -dNOPAUSE -q -sOutputFile=output.ppm -- ../../office_data/10.ps > ftmp_out

real	0m0.146s
user	0m0.012s
sys	0m0.005s

 Performance counter stats for './__run 10':

         19.912010      task-clock (msec)         #    0.133 CPUs utilized          
                 4      context-switches          #    0.201 K/sec                  
                 2      cpu-migrations            #    0.100 K/sec                  
               877      page-faults               #    0.044 M/sec                  
        38,299,881      cycles                    #    1.923 GHz                    
        21,478,862      stalled-cycles-frontend   #   56.08% frontend cycles idle   
        36,945,586      instructions              #    0.96  insn per cycle         
                                                  #    0.58  stalled cycles per insn
         8,366,460      branches                  #  420.172 M/sec                  
           387,264      branch-misses             #    4.63% of all branches        

       0.149931968 seconds time elapsed

tmp_bat: line 1: 12732 Segmentation fault      (core dumped) ./a.out -sDEVICE=ppm -dNOPAUSE -q -sOutputFile=output.ppm -- ../../office_data/10.ps > ftmp_out

real	0m0.149s
user	0m0.013s
sys	0m0.004s

 Performance counter stats for './__run 10':

         19.887058      task-clock (msec)         #    0.131 CPUs utilized          
                 6      context-switches          #    0.302 K/sec                  
                 1      cpu-migrations            #    0.050 K/sec                  
               880      page-faults               #    0.044 M/sec                  
        38,613,805      cycles                    #    1.942 GHz                    
        21,661,093      stalled-cycles-frontend   #   56.10% frontend cycles idle   
        37,011,049      instructions              #    0.96  insn per cycle         
                                                  #    0.59  stalled cycles per insn
         8,380,601      branches                  #  421.410 M/sec                  
           386,836      branch-misses             #    4.62% of all branches        

       0.151887027 seconds time elapsed

